<?xml version="1.0" encoding="UTF-8" standalone="no"?>
<svg
   xmlns:dc="http://purl.org/dc/elements/1.1/"
   xmlns:cc="http://creativecommons.org/ns#"
   xmlns:rdf="http://www.w3.org/1999/02/22-rdf-syntax-ns#"
   xmlns:svg="http://www.w3.org/2000/svg"
   xmlns="http://www.w3.org/2000/svg"
   xmlns:sodipodi="http://sodipodi.sourceforge.net/DTD/sodipodi-0.dtd"
   xmlns:inkscape="http://www.inkscape.org/namespaces/inkscape"
   version="1.1"
   id="svg2"
   xml:space="preserve"
   width="32"
   height="32"
   viewBox="0 0 32 32"
   sodipodi:docname="Zaubi-Hat-blue-e.svg"
   inkscape:version="1.0.2 (e86c870879, 2021-01-15)"
   inkscape:export-filename="/home/marcelo/src/zauboard/public/favico.png"
   inkscape:export-xdpi="5.7916632"
   inkscape:export-ydpi="5.7916632"><metadata
     id="metadata8"><rdf:RDF><cc:Work
         rdf:about=""><dc:format>image/svg+xml</dc:format><dc:type
           rdf:resource="http://purl.org/dc/dcmitype/StillImage" /><dc:title></dc:title></cc:Work></rdf:RDF></metadata><defs
     id="defs6"><inkscape:perspective
       sodipodi:type="inkscape:persp3d"
       inkscape:vp_x="0 : -248.26495 : 1"
       inkscape:vp_y="0 : 999.99998 : 0"
       inkscape:vp_z="560.52991 : -248.26495 : 1"
       inkscape:persp3d-origin="280.26496 : -341.6866 : 1"
       id="perspective876" /></defs><sodipodi:namedview
     pagecolor="#ffffff"
     bordercolor="#666666"
     borderopacity="1"
     objecttolerance="10"
     gridtolerance="10"
     guidetolerance="10"
     inkscape:pageopacity="0"
     inkscape:pageshadow="2"
     inkscape:window-width="1920"
     inkscape:window-height="1048"
     id="namedview4"
     showgrid="false"
     inkscape:snap-global="false"
     inkscape:zoom="14.914427"
     inkscape:cx="19.67286"
     inkscape:cy="19.16641"
     inkscape:window-x="0"
     inkscape:window-y="32"
     inkscape:window-maximized="1"
     inkscape:current-layer="g10"
     inkscape:document-rotation="0" /><g
     id="g10"
     inkscape:groupmode="layer"
     inkscape:label="myNewWhiteboard"
     transform="matrix(1.3333333,0,0,1.3333333,-1293.6329,-4870.0305)"><path
       style="opacity:0.98;fill:#93a5f5;fill-opacity:1;stroke:none;stroke-width:6;stroke-linecap:round;stroke-linejoin:round;stroke-opacity:1"
       d="m 985.50737,3655.4476 c -0.17131,0.3033 -0.63546,0.5694 -0.45948,-0.035 0.12618,-0.4329 0.91749,-1.215 1.27064,-0.5701 0.099,0.1806 0.0289,0.4295 0.0694,0.6309 0.0856,0.4252 0.24367,0.8675 0.40559,1.2584 0.1777,0.4293 -0.0324,1.0569 -0.12972,1.4886 -0.18573,0.8236 -0.28356,1.3855 -0.63578,2.1588 -0.10594,0.2326 -0.28421,0.4211 -0.37543,0.6633 -0.1051,0.2788 -0.12152,0.6242 -0.21833,0.9143 -0.0743,0.2224 -0.27237,0.3758 -0.31697,0.6105 -0.0222,0.1174 0.11832,1.348 0.15987,1.4805 0.0396,0.126 0.18427,0.1609 0.21648,0.3037 0.065,0.2884 -0.004,0.7034 0.003,1.0044 0.0108,0.4025 -0.0223,1.6953 0.10871,2.007 0.0672,0.1601 0.23128,0.3321 0.34528,0.4444 0.87628,0.8635 2.9882,-0.4088 3.94437,-0.649 -3.29122,2.7914 -10.30674,5.8844 -13.49288,6.2192 -0.70543,-0.1303 -1.38114,-0.2391 -2.09458,-0.2521 -0.88658,-0.016 -2.04236,0.284 -2.75687,-0.5823 -0.62097,-0.7528 0.257,-0.7159 0.63944,-0.8687 0.33264,-0.133 0.6494,-0.3194 0.98289,-0.4506 0.92247,-0.3627 1.8519,-0.6639 2.76234,-1.0753 0.61707,-0.2789 1.26549,-0.5023 1.82054,-0.9549 0.0875,-0.071 0.17322,-0.1573 0.23842,-0.2592 0.15127,-0.2362 0.22442,-0.5388 0.3526,-0.7959 0.0771,-0.1546 0.25656,-0.2852 0.30328,-0.4566 0.0316,-0.1163 -0.0422,-0.2578 -0.0174,-0.3869 0.091,-0.4734 0.2739,-0.9236 0.36813,-1.4024 0.098,-0.4981 0.1231,-1.0095 0.21649,-1.5087 0.12786,-0.6833 0.5567,-0.3996 0.76549,-0.9397 0.0589,-0.1519 0.0618,-0.3303 0.10962,-0.4881 0.34729,-1.1461 0.59649,-2.6317 1.37476,-3.4721 0.19661,-0.2123 0.51354,-0.358 0.75088,-0.483 0.3946,-0.2075 0.78111,-0.4498 1.18934,-0.6135 0.61331,-0.2461 1.30576,-0.3794 1.82147,-0.9084 0.39039,-0.4005 0.30412,-1.2093 0.39919,-1.7537 0.0115,-0.066 0.12417,-0.089 0.11143,-0.163 -0.0202,-0.1163 -0.17163,-0.1104 -0.23294,-0.1152 z"
       id="path868"
       sodipodi:nodetypes="cccscscccssscsccccssccccscccscccccssccc" /><path
       style="opacity:0.98;fill:#515976;fill-opacity:1;stroke:none;stroke-width:6;stroke-linecap:round;stroke-linejoin:round;stroke-opacity:1"
       d="m 981.15286,3671.3939 c 1.46439,-0.676 3.03947,-1.4839 4.34903,-2.1537 1.35624,-0.7566 4.32732,-2.515 5.82703,-2.1577 0.46271,0.041 1.22,0.2173 1.56615,0.6809 1.08782,1.4567 -0.0431,3.5229 -1.36194,4.1385 -3.26364,1.5233 -6.11773,1.5451 -9.24983,1.7932 -1.66613,0.1322 -4.132,0.2926 -5.45803,-0.1884 -0.10314,-0.038 -1.40289,-0.2277 -1.37157,-0.3873 0.0313,-0.1597 1.11073,-0.2737 1.20122,-0.2987 0.89628,-0.2485 1.80475,-0.402 2.70753,-0.6045 0.53905,-0.1211 1.2261,-0.5586 1.79041,-0.8223 z"
       id="path870"
       sodipodi:nodetypes="cccsssczssc" /><path
       style="opacity:0.98;fill:#6e7fe8;fill-opacity:1;stroke:none;stroke-width:6;stroke-linecap:round;stroke-linejoin:round;stroke-opacity:1"
       d="m 975.53034,3673.1271 c -0.63552,0.141 -2.71476,0.063 -0.96282,-1.0514 1.33757,-0.851 4.34395,-1.4331 5.1268,-3.1685 0.57688,-1.2789 1.11564,-2.7947 1.497,-4.1782 0.36627,-1.3288 0.52377,-2.7541 1.11655,-3.9743 0.70392,-1.4493 2.19623,-1.7841 3.20116,-2.8251 0.36406,-0.3769 0.66279,-0.861 0.77,-1.4355 0.0436,-0.234 0.0728,-0.4738 0.0509,-0.7133 -0.007,-0.072 -0.058,-0.8641 0.0257,-0.8301 0.0541,0.3554 0.13365,0.9376 0.24486,1.1589 0.35312,0.703 0.30166,1.2123 0.14038,1.8789 -0.14782,0.6108 -0.28814,1.1327 -0.42433,1.6912 -0.13865,0.5686 -0.70795,1.7312 -0.90517,2.2743 -0.1984,0.5462 -0.28141,0.4254 -0.28141,1.0572 0,0.5806 0.21104,0.913 0.35536,1.4072 0.25243,0.865 -0.15722,2.4244 0.39639,3.1587 0.30294,0.4017 1.13578,0.2878 1.53348,0.2166 0.0481,-0.012 0.62629,0.039 0.59044,0.102 -0.67353,1.1946 -2.96324,1.9622 -3.96747,2.5011 -2.2893,1.2282 -4.34373,2.2389 -6.84269,2.5331 -0.41224,0.049 -1.25394,0.2993 -1.66507,0.1965 z"
       id="path874"
       sodipodi:nodetypes="csscsscccsssssscsccsc" /><path
       sodipodi:type="star"
       style="opacity:0.98;fill:#d4d7fe;fill-opacity:1;stroke:none;stroke-width:132.23;stroke-linecap:round;stroke-linejoin:round;stroke-opacity:1"
       id="path914"
       sodipodi:sides="5"
       sodipodi:cx="1157.651"
       sodipodi:cy="3860.3064"
       sodipodi:r1="20.449247"
       sodipodi:r2="10.224624"
       sodipodi:arg1="-0.59438915"
       sodipodi:arg2="0.033929376"
       inkscape:flatsided="false"
       inkscape:rounded="0"
       inkscape:randomized="0"
       d="m 1174.593,3848.8548 -6.7233,11.7984 5.9078,12.2273 -13.2986,-2.7483 -9.8032,9.397 -1.4957,-13.497 -11.9665,-6.4195 12.3742,-5.5933 2.4075,-13.3646 9.1434,10.0402 z"
       inkscape:transform-center-x="0.10058686"
       inkscape:transform-center-y="-0.013529299"
       transform="matrix(0.04316279,0,0,0.04770195,931.26425,3485.5969)" /><path
       sodipodi:type="star"
       style="opacity:0.98;fill:#d4d7fe;fill-opacity:1;stroke:none;stroke-width:6.14783;stroke-linecap:round;stroke-linejoin:round;stroke-opacity:1"
       id="path916"
       sodipodi:sides="5"
       sodipodi:cx="983.35754"
       sodipodi:cy="3661.9714"
       sodipodi:r1="0.97224599"
       sodipodi:r2="0.486123"
       sodipodi:arg1="0.46453502"
       sodipodi:arg2="1.0928536"
       inkscape:flatsided="false"
       inkscape:rounded="0"
       inkscape:randomized="0"
       d="m 984.22676,3662.407 -0.64562,-0 -0.36925,0.5296 -0.19577,-0.6152 -0.61781,-0.1875 0.52463,-0.3764 -0.0126,-0.6455 0.52001,0.3827 0.61003,-0.2114 -0.20324,0.6128 z"
       inkscape:transform-center-x="0.057826218"
       inkscape:transform-center-y="0.064451872"
       transform="matrix(0.96331694,0,0,0.98875964,36.075929,41.197326)" /><path
       sodipodi:type="star"
       style="opacity:0.98;fill:#d4d7fe;fill-opacity:1;stroke:none;stroke-width:131.882;stroke-linecap:round;stroke-linejoin:round;stroke-opacity:1"
       id="path914-3"
       sodipodi:sides="5"
       sodipodi:cx="1157.651"
       sodipodi:cy="3860.3064"
       sodipodi:r1="20.449247"
       sodipodi:r2="10.224624"
       sodipodi:arg1="-0.59438915"
       sodipodi:arg2="0.033929376"
       inkscape:flatsided="false"
       inkscape:rounded="0"
       inkscape:randomized="0"
       inkscape:transform-center-x="-0.097916646"
       inkscape:transform-center-y="-0.0043478787"
       transform="matrix(0.03539067,0.02583167,-0.02648869,0.03915145,1045.1523,3485.7883)"
       d="m 1174.593,3848.8548 -6.7233,11.7984 5.9078,12.2273 -13.2986,-2.7483 -9.8032,9.397 -1.4957,-13.497 -11.9665,-6.4195 12.3742,-5.5933 2.4075,-13.3646 9.1434,10.0402 z" /></g></svg>
