<?xml version="1.0" encoding="UTF-8" standalone="no"?>
<svg
   xmlns:dc="http://purl.org/dc/elements/1.1/"
   xmlns:cc="http://creativecommons.org/ns#"
   xmlns:rdf="http://www.w3.org/1999/02/22-rdf-syntax-ns#"
   xmlns:svg="http://www.w3.org/2000/svg"
   xmlns="http://www.w3.org/2000/svg"
   xmlns:sodipodi="http://sodipodi.sourceforge.net/DTD/sodipodi-0.dtd"
   xmlns:inkscape="http://www.inkscape.org/namespaces/inkscape"
   width="24"
   height="24"
   viewBox="0 0 6.35 6.35"
   version="1.1"
   id="svg8"
   inkscape:version="1.0.1 (3bc2e813f5, 2020-09-07)"
   sodipodi:docname="undo.svg">
  <defs
     id="defs2" />
  <sodipodi:namedview
     id="base"
     pagecolor="#ffffff"
     bordercolor="#666666"
     borderopacity="1.0"
     inkscape:pageopacity="0.0"
     inkscape:pageshadow="2"
     inkscape:zoom="7.9999996"
     inkscape:cx="6.6088507"
     inkscape:cy="6.8562684"
     inkscape:document-units="mm"
     inkscape:current-layer="layer1"
     inkscape:document-rotation="0"
     showgrid="false"
     units="px"
     inkscape:snap-global="false"
     inkscape:window-width="958"
     inkscape:window-height="1046"
     inkscape:window-x="960"
     inkscape:window-y="32"
     inkscape:window-maximized="1" />
  <metadata
     id="metadata5">
    <rdf:RDF>
      <cc:Work
         rdf:about="">
        <dc:format>image/svg+xml</dc:format>
        <dc:type
           rdf:resource="http://purl.org/dc/dcmitype/StillImage" />
        <dc:title />
      </cc:Work>
    </rdf:RDF>
  </metadata>
  <g
     inkscape:label="Layer 1"
     inkscape:groupmode="layer"
     id="layer1">
    <path
       sodipodi:type="star"
       style="opacity:0.98;fill:#9999ff;stroke:none;stroke-width:0.303371;stroke-linecap:round;fill-opacity:1"
       id="path907"
       sodipodi:sides="3"
       sodipodi:cx="0.8763985"
       sodipodi:cy="1.7561166"
       sodipodi:r1="1.813055"
       sodipodi:r2="0.90652752"
       sodipodi:arg1="1.0471976"
       sodipodi:arg2="2.0943951"
       inkscape:flatsided="true"
       inkscape:rounded="0"
       inkscape:randomized="0"
       inkscape:transform-center-x="0.0088997745"
       transform="matrix(0.58252864,-0.60847395,0.70402318,0.57036696,-0.42613417,2.9013961)"
       inkscape:transform-center-y="0.31283303"
       d="M 1.7829259,3.3262684 -0.93665653,1.7561165 1.7829261,0.18596495 Z" />
    <path
       id="path909-2"
       style="opacity:0.98;fill:#9999ff;stroke:#9999ff;stroke-width:0.264582;stroke-linecap:round;fill-opacity:1;stroke-opacity:1"
       d="M 5.9434017,3.5449114 C 4.9724602,2.0285736 2.7734173,1.5624005 1.175415,2.4415338 L 1.9817197,3.6171027 C 2.2528675,2.8933215 3.0425002,2.5831006 3.8617173,2.5177595 c 0.8192172,-0.065341 1.6148299,0.319199 2.042587,0.9872353"
       sodipodi:nodetypes="cccsc" />
  </g>
</svg>
