<?xml version="1.0" encoding="UTF-8" standalone="no"?>
<!-- Created with Inkscape (http://www.inkscape.org/) -->

<svg
   version="1.1"
   id="svg2655"
   xml:space="preserve"
   width="345.30231"
   height="135.36488"
   viewBox="0 0 345.30231 135.36488"
   sodipodi:docname="Zauboard-logo.svg"
   inkscape:version="1.1 (c68e22c387, 2021-05-23)"
   xmlns:inkscape="http://www.inkscape.org/namespaces/inkscape"
   xmlns:sodipodi="http://sodipodi.sourceforge.net/DTD/sodipodi-0.dtd"
   xmlns="http://www.w3.org/2000/svg"
   xmlns:svg="http://www.w3.org/2000/svg"><defs
     id="defs2659" /><sodipodi:namedview
     id="namedview2657"
     pagecolor="#ffffff"
     bordercolor="#666666"
     borderopacity="1.0"
     inkscape:pageshadow="2"
     inkscape:pageopacity="0.0"
     inkscape:pagecheckerboard="0"
     showgrid="false"
     inkscape:zoom="0.48950344"
     inkscape:cx="73.543916"
     inkscape:cy="106.2301"
     inkscape:window-width="1920"
     inkscape:window-height="1048"
     inkscape:window-x="0"
     inkscape:window-y="32"
     inkscape:window-maximized="1"
     inkscape:current-layer="g2661"
     width="1518.1123px"
     scale-x="1" /><g
     id="g2661"
     inkscape:groupmode="layer"
     inkscape:label="pdf"
     transform="matrix(1.3333333,0,0,1.3333333,-677.78578,-320.75197)"><g
       id="g2093"
       transform="matrix(0.22745505,0,0,0.22745505,492.75058,225.06229)"><g
         id="g2665"><path
           d="m 337.09,165.336 c 4.07,0 4.16,0.57 8.137,0"
           style="fill:none;stroke:#867df9;stroke-width:10.6217;stroke-linecap:round;stroke-linejoin:miter;stroke-miterlimit:4;stroke-dasharray:none;stroke-opacity:1"
           id="path2667" /></g><g
         id="g2669"><path
           d="m 345.227,165.336 c 3.144,-0.449 2.921,-1.836 6.105,-2.035"
           style="fill:none;stroke:#867df9;stroke-width:10.6217;stroke-linecap:round;stroke-linejoin:miter;stroke-miterlimit:4;stroke-dasharray:none;stroke-opacity:1"
           id="path2671" /></g><g
         id="g2673"><path
           d="m 351.332,163.301 c 13.094,-0.817 13.297,-0.731 26.449,0"
           style="fill:none;stroke:#867df9;stroke-width:10.6217;stroke-linecap:round;stroke-linejoin:miter;stroke-miterlimit:4;stroke-dasharray:none;stroke-opacity:1"
           id="path2675" /></g><g
         id="g2677"><path
           d="m 377.781,163.301 c 5.16,0.289 5.008,1.629 10.176,2.035"
           style="fill:none;stroke:#867df9;stroke-width:10.6217;stroke-linecap:round;stroke-linejoin:miter;stroke-miterlimit:4;stroke-dasharray:none;stroke-opacity:1"
           id="path2679" /></g><g
         id="g2681"><path
           d="m 387.957,165.336 c 33.492,2.644 33.75,0.492 67.141,4.07"
           style="fill:none;stroke:#867df9;stroke-width:10.6217;stroke-linecap:round;stroke-linejoin:miter;stroke-miterlimit:4;stroke-dasharray:none;stroke-opacity:1"
           id="path2683" /></g><g
         id="g2685"><path
           d="m 455.098,169.406 c 23.578,2.528 23.308,4.782 46.797,8.137"
           style="fill:none;stroke:#867df9;stroke-width:10.6217;stroke-linecap:round;stroke-linejoin:miter;stroke-miterlimit:4;stroke-dasharray:none;stroke-opacity:1"
           id="path2687" /></g><g
         id="g2689"><path
           d="m 501.895,177.543 c 12.117,1.73 12.402,0.32 24.414,2.035"
           style="fill:none;stroke:#867df9;stroke-width:10.6217;stroke-linecap:round;stroke-linejoin:miter;stroke-miterlimit:4;stroke-dasharray:none;stroke-opacity:1"
           id="path2691" /></g><g
         id="g2693"><path
           d="m 526.309,179.578 c 2.23,0.32 5.566,0.715 4.07,2.035"
           style="fill:none;stroke:#867df9;stroke-width:10.6217;stroke-linecap:round;stroke-linejoin:miter;stroke-miterlimit:4;stroke-dasharray:none;stroke-opacity:1"
           id="path2695" /></g><g
         id="g2697"><path
           d="m 530.379,181.613 c -15.797,13.938 -20,13.399 -38.656,28.485"
           style="fill:none;stroke:#867df9;stroke-width:10.6217;stroke-linecap:round;stroke-linejoin:miter;stroke-miterlimit:4;stroke-dasharray:none;stroke-opacity:1"
           id="path2699" /></g><g
         id="g2701"><path
           d="M 491.723,210.098 C 462.566,233.672 462.34,233.547 434.75,258.93"
           style="fill:none;stroke:#867df9;stroke-width:10.6217;stroke-linecap:round;stroke-linejoin:miter;stroke-miterlimit:4;stroke-dasharray:none;stroke-opacity:1"
           id="path2703" /></g><g
         id="g2705"><path
           d="m 434.75,258.93 c -23.273,21.414 -23.156,21.652 -44.762,44.761"
           style="fill:none;stroke:#867df9;stroke-width:10.6217;stroke-linecap:round;stroke-linejoin:miter;stroke-miterlimit:4;stroke-dasharray:none;stroke-opacity:1"
           id="path2707" /></g><g
         id="g2709"><path
           d="m 389.988,303.691 c -22.14,23.688 -22.73,23.454 -42.726,48.832"
           style="fill:none;stroke:#867df9;stroke-width:10.6217;stroke-linecap:round;stroke-linejoin:miter;stroke-miterlimit:4;stroke-dasharray:none;stroke-opacity:1"
           id="path2711" /></g><g
         id="g2713"><path
           d="m 347.262,352.523 c -6.453,8.192 -4.61,9.965 -10.172,18.313"
           style="fill:none;stroke:#867df9;stroke-width:10.6217;stroke-linecap:round;stroke-linejoin:miter;stroke-miterlimit:4;stroke-dasharray:none;stroke-opacity:1"
           id="path2715" /></g><g
         id="g2717"><path
           d="m 337.09,370.836 c -0.539,0.809 -3.004,0.047 -2.035,0"
           style="fill:none;stroke:#867df9;stroke-width:10.6217;stroke-linecap:round;stroke-linejoin:miter;stroke-miterlimit:4;stroke-dasharray:none;stroke-opacity:1"
           id="path2719" /></g><g
         id="g2721"><path
           d="m 335.055,370.836 c 40.742,-1.988 42.808,-0.949 85.453,-4.07"
           style="fill:none;stroke:#867df9;stroke-width:10.6217;stroke-linecap:round;stroke-linejoin:miter;stroke-miterlimit:4;stroke-dasharray:none;stroke-opacity:1"
           id="path2723" /></g><g
         id="g2725"><path
           d="m 420.508,366.766 c 40.773,-2.985 40.64,-5.121 81.387,-8.141"
           style="fill:none;stroke:#867df9;stroke-width:10.6217;stroke-linecap:round;stroke-linejoin:miter;stroke-miterlimit:4;stroke-dasharray:none;stroke-opacity:1"
           id="path2727" /></g><g
         id="g2729"><path
           d="m 501.895,358.625 c 14.191,-1.051 14.339,0.785 28.484,0"
           style="fill:none;stroke:#867df9;stroke-width:10.6217;stroke-linecap:round;stroke-linejoin:miter;stroke-miterlimit:4;stroke-dasharray:none;stroke-opacity:1"
           id="path2731" /></g><g
         id="g2733"><path
           d="m 530.379,358.625 c 4.168,-0.23 4.027,-1.348 8.141,-2.035"
           style="fill:none;stroke:#867df9;stroke-width:10.6217;stroke-linecap:round;stroke-linejoin:miter;stroke-miterlimit:4;stroke-dasharray:none;stroke-opacity:1"
           id="path2735" /></g><g
         id="g2737"><path
           d="m 538.52,356.59 c 1.992,-0.332 2.71,-0.676 4.066,0"
           style="fill:none;stroke:#867df9;stroke-width:10.6217;stroke-linecap:round;stroke-linejoin:miter;stroke-miterlimit:4;stroke-dasharray:none;stroke-opacity:1"
           id="path2739" /></g><g
         id="g2741"><path
           d="m 542.586,356.59 c 0.68,0.34 0,2.035 0,2.035"
           style="fill:none;stroke:#867df9;stroke-width:10.6217;stroke-linecap:round;stroke-linejoin:miter;stroke-miterlimit:4;stroke-dasharray:none;stroke-opacity:1"
           id="path2743" /></g><g
         id="g2745"><path
           d="m 542.586,358.625 c 0,0 0,-1.016 0,-2.035"
           style="fill:none;stroke:#867df9;stroke-width:10.6217;stroke-linecap:round;stroke-linejoin:miter;stroke-miterlimit:4;stroke-dasharray:none;stroke-opacity:1"
           id="path2747" /></g><g
         id="g2749"><path
           d="m 542.586,356.59 v 0"
           style="fill:none;stroke:#867df9;stroke-width:10.6217;stroke-linecap:round;stroke-linejoin:miter;stroke-miterlimit:4;stroke-dasharray:none;stroke-opacity:1"
           id="path2751" /></g><g
         id="g2753"><path
           d="m 375.746,281.309 c 6.106,0 6.156,0.699 12.211,0"
           style="fill:none;stroke:#867df9;stroke-width:10.6217;stroke-linecap:round;stroke-linejoin:miter;stroke-miterlimit:4;stroke-dasharray:none;stroke-opacity:1"
           id="path2755" /></g><g
         id="g2757"><path
           d="m 387.957,281.309 c 20.398,-2.352 20.227,-4.286 40.691,-6.102"
           style="fill:none;stroke:#867df9;stroke-width:10.6217;stroke-linecap:round;stroke-linejoin:miter;stroke-miterlimit:4;stroke-dasharray:none;stroke-opacity:1"
           id="path2759" /></g><g
         id="g2761"><path
           d="m 428.648,275.207 c 25.317,-2.25 25.434,-1.019 50.864,-2.035"
           style="fill:none;stroke:#867df9;stroke-width:10.6217;stroke-linecap:round;stroke-linejoin:miter;stroke-miterlimit:4;stroke-dasharray:none;stroke-opacity:1"
           id="path2763" /></g><g
         id="g2765"><path
           d="m 479.512,273.172 v 0"
           style="fill:none;stroke:#867df9;stroke-width:10.6217;stroke-linecap:round;stroke-linejoin:miter;stroke-miterlimit:4;stroke-dasharray:none;stroke-opacity:1"
           id="path2767" /></g><g
         id="g2769"><path
           d="m 571.07,360.66 c 1.02,0 1.375,0.664 2.035,0"
           style="fill:none;stroke:#867df9;stroke-width:10.6217;stroke-linecap:round;stroke-linejoin:miter;stroke-miterlimit:4;stroke-dasharray:none;stroke-opacity:1"
           id="path2771" /></g><g
         id="g2773"><path
           d="m 573.105,360.66 c 2.391,-2.387 2.403,-2.84 4.071,-6.101"
           style="fill:none;stroke:#867df9;stroke-width:10.6217;stroke-linecap:round;stroke-linejoin:miter;stroke-miterlimit:4;stroke-dasharray:none;stroke-opacity:1"
           id="path2775" /></g><g
         id="g2777"><path
           d="m 577.176,354.559 c 21.73,-42.516 20.394,-45.641 42.726,-85.457"
           style="fill:none;stroke:#867df9;stroke-width:10.6217;stroke-linecap:round;stroke-linejoin:miter;stroke-miterlimit:4;stroke-dasharray:none;stroke-opacity:1"
           id="path2779" /></g><g
         id="g2781"><path
           d="m 619.902,269.102 c 1.063,-1.895 3.203,0.082 4.071,2.035"
           style="fill:none;stroke:#867df9;stroke-width:10.6217;stroke-linecap:round;stroke-linejoin:miter;stroke-miterlimit:4;stroke-dasharray:none;stroke-opacity:1"
           id="path2783" /></g><g
         id="g2785"><path
           d="m 623.973,271.137 c 3.199,7.203 2.8,8.043 4.07,16.277"
           style="fill:none;stroke:#867df9;stroke-width:10.6217;stroke-linecap:round;stroke-linejoin:miter;stroke-miterlimit:4;stroke-dasharray:none;stroke-opacity:1"
           id="path2787" /></g><g
         id="g2789"><path
           d="m 628.043,287.414 c 0.766,4.992 -0.746,5.152 0,10.172"
           style="fill:none;stroke:#867df9;stroke-width:10.6217;stroke-linecap:round;stroke-linejoin:miter;stroke-miterlimit:4;stroke-dasharray:none;stroke-opacity:1"
           id="path2791" /></g><g
         id="g2793"><path
           d="m 628.043,297.586 c 3.324,22.449 5.234,22.277 8.137,44.762"
           style="fill:none;stroke:#867df9;stroke-width:10.6217;stroke-linecap:round;stroke-linejoin:miter;stroke-miterlimit:4;stroke-dasharray:none;stroke-opacity:1"
           id="path2795" /></g><g
         id="g2797"><path
           d="m 636.18,342.348 c 1.168,9.05 0,9.156 0,18.312"
           style="fill:none;stroke:#867df9;stroke-width:10.6217;stroke-linecap:round;stroke-linejoin:miter;stroke-miterlimit:4;stroke-dasharray:none;stroke-opacity:1"
           id="path2799" /></g><g
         id="g2801"><path
           d="m 636.18,360.66 v 0"
           style="fill:none;stroke:#867df9;stroke-width:10.6217;stroke-linecap:round;stroke-linejoin:miter;stroke-miterlimit:4;stroke-dasharray:none;stroke-opacity:1"
           id="path2803" /></g><g
         id="g2805"><path
           d="m 589.383,322.004 c 6.105,1.016 6.047,1.726 12.207,2.035"
           style="fill:none;stroke:#867df9;stroke-width:10.6217;stroke-linecap:round;stroke-linejoin:miter;stroke-miterlimit:4;stroke-dasharray:none;stroke-opacity:1"
           id="path2807" /></g><g
         id="g2809"><path
           d="m 601.59,324.039 c 14.183,0.707 14.242,0 28.488,0"
           style="fill:none;stroke:#867df9;stroke-width:10.6217;stroke-linecap:round;stroke-linejoin:miter;stroke-miterlimit:4;stroke-dasharray:none;stroke-opacity:1"
           id="path2811" /></g><g
         id="g2813"><path
           d="m 630.078,324.039 v 0"
           style="fill:none;stroke:#867df9;stroke-width:10.6217;stroke-linecap:round;stroke-linejoin:miter;stroke-miterlimit:4;stroke-dasharray:none;stroke-opacity:1"
           id="path2815" /></g><g
         id="g2817"><path
           d="m 676.871,281.309 c -5.086,10.175 -7.027,9.566 -10.172,20.347"
           style="fill:none;stroke:#867df9;stroke-width:10.6217;stroke-linecap:round;stroke-linejoin:miter;stroke-miterlimit:4;stroke-dasharray:none;stroke-opacity:1"
           id="path2819" /></g><g
         id="g2821"><path
           d="m 666.699,301.656 c -3.976,13.637 -3.39,14.242 -4.07,28.485"
           style="fill:none;stroke:#867df9;stroke-width:10.6217;stroke-linecap:round;stroke-linejoin:miter;stroke-miterlimit:4;stroke-dasharray:none;stroke-opacity:1"
           id="path2823" /></g><g
         id="g2825"><path
           d="m 662.629,330.141 c -0.336,7.121 -0.481,7.695 2.035,14.242"
           style="fill:none;stroke:#867df9;stroke-width:10.6217;stroke-linecap:round;stroke-linejoin:miter;stroke-miterlimit:4;stroke-dasharray:none;stroke-opacity:1"
           id="path2827" /></g><g
         id="g2829"><path
           d="m 664.664,344.383 c 2.57,6.679 2.961,7.679 8.141,12.207"
           style="fill:none;stroke:#867df9;stroke-width:10.6217;stroke-linecap:round;stroke-linejoin:miter;stroke-miterlimit:4;stroke-dasharray:none;stroke-opacity:1"
           id="path2831" /></g><g
         id="g2833"><path
           d="m 672.805,356.59 c 2.961,2.594 4.09,2.402 8.136,2.035"
           style="fill:none;stroke:#867df9;stroke-width:10.6217;stroke-linecap:round;stroke-linejoin:miter;stroke-miterlimit:4;stroke-dasharray:none;stroke-opacity:1"
           id="path2835" /></g><g
         id="g2837"><path
           d="m 680.941,358.625 c 7.145,-0.648 7.864,-0.633 14.243,-4.066"
           style="fill:none;stroke:#867df9;stroke-width:10.6217;stroke-linecap:round;stroke-linejoin:miter;stroke-miterlimit:4;stroke-dasharray:none;stroke-opacity:1"
           id="path2839" /></g><g
         id="g2841"><path
           d="m 695.184,354.559 c 6.847,-3.688 7.382,-4.032 12.207,-10.176"
           style="fill:none;stroke:#867df9;stroke-width:10.6217;stroke-linecap:round;stroke-linejoin:miter;stroke-miterlimit:4;stroke-dasharray:none;stroke-opacity:1"
           id="path2843" /></g><g
         id="g2845"><path
           d="m 707.391,344.383 c 6.363,-8.098 8.019,-8.395 10.175,-18.313"
           style="fill:none;stroke:#867df9;stroke-width:10.6217;stroke-linecap:round;stroke-linejoin:miter;stroke-miterlimit:4;stroke-dasharray:none;stroke-opacity:1"
           id="path2847" /></g><g
         id="g2849"><path
           d="m 717.566,326.07 c 2.93,-13.48 0,-14.242 0,-28.484"
           style="fill:none;stroke:#867df9;stroke-width:10.6217;stroke-linecap:round;stroke-linejoin:miter;stroke-miterlimit:4;stroke-dasharray:none;stroke-opacity:1"
           id="path2851" /></g><g
         id="g2853"><path
           d="m 717.566,297.586 v 0"
           style="fill:none;stroke:#867df9;stroke-width:10.6217;stroke-linecap:round;stroke-linejoin:miter;stroke-miterlimit:4;stroke-dasharray:none;stroke-opacity:1"
           id="path2855" /></g><g
         id="g2857"><path
           d="m 754.188,285.379 c -4.067,17.297 -5.231,17.16 -8.137,34.59"
           style="fill:none;stroke:#867df9;stroke-width:10.6217;stroke-linecap:round;stroke-linejoin:miter;stroke-miterlimit:4;stroke-dasharray:none;stroke-opacity:1"
           id="path2859" /></g><g
         id="g2861"><path
           d="m 746.051,319.969 c -1.164,6.984 0.699,7.234 0,14.242"
           style="fill:none;stroke:#867df9;stroke-width:10.6217;stroke-linecap:round;stroke-linejoin:miter;stroke-miterlimit:4;stroke-dasharray:none;stroke-opacity:1"
           id="path2863" /></g><g
         id="g2865"><path
           d="m 746.051,334.211 c -0.317,3.164 -2.035,2.988 -2.035,6.105"
           style="fill:none;stroke:#867df9;stroke-width:10.6217;stroke-linecap:round;stroke-linejoin:miter;stroke-miterlimit:4;stroke-dasharray:none;stroke-opacity:1"
           id="path2867" /></g><g
         id="g2869"><path
           d="m 744.016,340.316 c 0,5.02 0.332,5.918 2.035,10.172"
           style="fill:none;stroke:#867df9;stroke-width:10.6217;stroke-linecap:round;stroke-linejoin:miter;stroke-miterlimit:4;stroke-dasharray:none;stroke-opacity:1"
           id="path2871" /></g><g
         id="g2873"><path
           d="m 746.051,350.488 c 0.332,0.832 1.015,0 2.035,0"
           style="fill:none;stroke:#867df9;stroke-width:10.6217;stroke-linecap:round;stroke-linejoin:miter;stroke-miterlimit:4;stroke-dasharray:none;stroke-opacity:1"
           id="path2875" /></g><g
         id="g2877"><path
           d="m 748.086,350.488 v 0"
           style="fill:none;stroke:#867df9;stroke-width:10.6217;stroke-linecap:round;stroke-linejoin:miter;stroke-miterlimit:4;stroke-dasharray:none;stroke-opacity:1"
           id="path2879" /></g><g
         id="g2881"><path
           d="m 756.223,277.242 c 4.07,-2.035 3.793,-3.203 8.14,-4.07"
           style="fill:none;stroke:#867df9;stroke-width:10.6217;stroke-linecap:round;stroke-linejoin:miter;stroke-miterlimit:4;stroke-dasharray:none;stroke-opacity:1"
           id="path2883" /></g><g
         id="g2885"><path
           d="m 764.363,273.172 c 5.828,-1.164 6.309,-1.074 12.207,0"
           style="fill:none;stroke:#867df9;stroke-width:10.6217;stroke-linecap:round;stroke-linejoin:miter;stroke-miterlimit:4;stroke-dasharray:none;stroke-opacity:1"
           id="path2887" /></g><g
         id="g2889"><path
           d="m 776.57,273.172 c 5.293,0.961 5.707,1.094 10.172,4.07"
           style="fill:none;stroke:#867df9;stroke-width:10.6217;stroke-linecap:round;stroke-linejoin:miter;stroke-miterlimit:4;stroke-dasharray:none;stroke-opacity:1"
           id="path2891" /></g><g
         id="g2893"><path
           d="m 786.742,277.242 c 4.692,3.125 4.492,3.762 8.141,8.137"
           style="fill:none;stroke:#867df9;stroke-width:10.6217;stroke-linecap:round;stroke-linejoin:miter;stroke-miterlimit:4;stroke-dasharray:none;stroke-opacity:1"
           id="path2895" /></g><g
         id="g2897"><path
           d="m 794.883,285.379 c 1.441,1.73 1.597,1.898 2.035,4.07"
           style="fill:none;stroke:#867df9;stroke-width:10.6217;stroke-linecap:round;stroke-linejoin:miter;stroke-miterlimit:4;stroke-dasharray:none;stroke-opacity:1"
           id="path2899" /></g><g
         id="g2901"><path
           d="m 796.918,289.449 c 0.582,2.914 1.144,3.434 0,6.102"
           style="fill:none;stroke:#867df9;stroke-width:10.6217;stroke-linecap:round;stroke-linejoin:miter;stroke-miterlimit:4;stroke-dasharray:none;stroke-opacity:1"
           id="path2903" /></g><g
         id="g2905"><path
           d="m 796.918,295.551 c -1.91,4.453 -2.063,5.445 -6.106,8.14"
           style="fill:none;stroke:#867df9;stroke-width:10.6217;stroke-linecap:round;stroke-linejoin:miter;stroke-miterlimit:4;stroke-dasharray:none;stroke-opacity:1"
           id="path2907" /></g><g
         id="g2909"><path
           d="m 790.812,303.691 c -5.113,3.411 -5.957,2.934 -12.207,4.071"
           style="fill:none;stroke:#867df9;stroke-width:10.6217;stroke-linecap:round;stroke-linejoin:miter;stroke-miterlimit:4;stroke-dasharray:none;stroke-opacity:1"
           id="path2911" /></g><g
         id="g2913"><path
           d="m 778.605,307.762 c -4.941,0.898 -6.539,1.453 -10.175,0"
           style="fill:none;stroke:#867df9;stroke-width:10.6217;stroke-linecap:round;stroke-linejoin:miter;stroke-miterlimit:4;stroke-dasharray:none;stroke-opacity:1"
           id="path2915" /></g><g
         id="g2917"><path
           d="m 768.43,307.762 c -1.453,-0.582 -0.594,-2.282 0,-4.071"
           style="fill:none;stroke:#867df9;stroke-width:10.6217;stroke-linecap:round;stroke-linejoin:miter;stroke-miterlimit:4;stroke-dasharray:none;stroke-opacity:1"
           id="path2919" /></g><g
         id="g2921"><path
           d="m 768.43,303.691 c 0.422,-1.265 0.66,-1.882 2.035,-2.035"
           style="fill:none;stroke:#867df9;stroke-width:10.6217;stroke-linecap:round;stroke-linejoin:miter;stroke-miterlimit:4;stroke-dasharray:none;stroke-opacity:1"
           id="path2923" /></g><g
         id="g2925"><path
           d="m 770.465,301.656 c 7.781,-0.863 8.531,-1.66 16.277,0"
           style="fill:none;stroke:#867df9;stroke-width:10.6217;stroke-linecap:round;stroke-linejoin:miter;stroke-miterlimit:4;stroke-dasharray:none;stroke-opacity:1"
           id="path2927" /></g><g
         id="g2929"><path
           d="m 786.742,301.656 c 6.496,1.391 6.602,2.364 12.207,6.106"
           style="fill:none;stroke:#867df9;stroke-width:10.6217;stroke-linecap:round;stroke-linejoin:miter;stroke-miterlimit:4;stroke-dasharray:none;stroke-opacity:1"
           id="path2931" /></g><g
         id="g2933"><path
           d="m 798.949,307.762 c 3.547,2.363 4.434,2.34 6.106,6.101"
           style="fill:none;stroke:#867df9;stroke-width:10.6217;stroke-linecap:round;stroke-linejoin:miter;stroke-miterlimit:4;stroke-dasharray:none;stroke-opacity:1"
           id="path2935" /></g><g
         id="g2937"><path
           d="m 805.055,313.863 c 2.398,5.395 2.035,6.184 2.035,12.207"
           style="fill:none;stroke:#867df9;stroke-width:10.6217;stroke-linecap:round;stroke-linejoin:miter;stroke-miterlimit:4;stroke-dasharray:none;stroke-opacity:1"
           id="path2939" /></g><g
         id="g2941"><path
           d="m 807.09,326.07 c 0,3.133 -0.356,3.414 -2.035,6.106"
           style="fill:none;stroke:#867df9;stroke-width:10.6217;stroke-linecap:round;stroke-linejoin:miter;stroke-miterlimit:4;stroke-dasharray:none;stroke-opacity:1"
           id="path2943" /></g><g
         id="g2945"><path
           d="m 805.055,332.176 c -3.407,5.449 -3.582,5.617 -8.137,10.172"
           style="fill:none;stroke:#867df9;stroke-width:10.6217;stroke-linecap:round;stroke-linejoin:miter;stroke-miterlimit:4;stroke-dasharray:none;stroke-opacity:1"
           id="path2947" /></g><g
         id="g2949"><path
           d="m 796.918,342.348 c -2.566,2.566 -2.613,3.265 -6.106,4.07"
           style="fill:none;stroke:#867df9;stroke-width:10.6217;stroke-linecap:round;stroke-linejoin:miter;stroke-miterlimit:4;stroke-dasharray:none;stroke-opacity:1"
           id="path2951" /></g><g
         id="g2953"><path
           d="m 790.812,346.418 c -9.734,2.246 -10.222,2.035 -20.347,2.035"
           style="fill:none;stroke:#867df9;stroke-width:10.6217;stroke-linecap:round;stroke-linejoin:miter;stroke-miterlimit:4;stroke-dasharray:none;stroke-opacity:1"
           id="path2955" /></g><g
         id="g2957"><path
           d="m 770.465,348.453 c -5.137,0 -5.293,-0.41 -10.172,-2.035"
           style="fill:none;stroke:#867df9;stroke-width:10.6217;stroke-linecap:round;stroke-linejoin:miter;stroke-miterlimit:4;stroke-dasharray:none;stroke-opacity:1"
           id="path2959" /></g><g
         id="g2961"><path
           d="m 760.293,346.418 c -4.277,-1.426 -4.398,-1.574 -8.141,-4.07"
           style="fill:none;stroke:#867df9;stroke-width:10.6217;stroke-linecap:round;stroke-linejoin:miter;stroke-miterlimit:4;stroke-dasharray:none;stroke-opacity:1"
           id="path2963" /></g><g
         id="g2965"><path
           d="m 752.152,342.348 c -2.363,-1.575 -2.031,-2.032 -4.066,-4.067"
           style="fill:none;stroke:#867df9;stroke-width:10.6217;stroke-linecap:round;stroke-linejoin:miter;stroke-miterlimit:4;stroke-dasharray:none;stroke-opacity:1"
           id="path2967" /></g><g
         id="g2969"><path
           d="m 748.086,338.281 v 0"
           style="fill:none;stroke:#867df9;stroke-width:10.6217;stroke-linecap:round;stroke-linejoin:miter;stroke-miterlimit:4;stroke-dasharray:none;stroke-opacity:1"
           id="path2971" /></g><g
         id="g2973"><path
           d="m 851.852,281.309 c -1.02,0 -1.528,0.511 -2.036,0"
           style="fill:none;stroke:#867df9;stroke-width:10.6217;stroke-linecap:round;stroke-linejoin:miter;stroke-miterlimit:4;stroke-dasharray:none;stroke-opacity:1"
           id="path2975" /></g><g
         id="g2977"><path
           d="m 849.816,281.309 c -0.507,-0.508 0.68,-1.696 0,-2.032"
           style="fill:none;stroke:#867df9;stroke-width:10.6217;stroke-linecap:round;stroke-linejoin:miter;stroke-miterlimit:4;stroke-dasharray:none;stroke-opacity:1"
           id="path2979" /></g><g
         id="g2981"><path
           d="m 849.816,279.277 c -1.355,-0.679 -2.457,-1.129 -4.07,0"
           style="fill:none;stroke:#867df9;stroke-width:10.6217;stroke-linecap:round;stroke-linejoin:miter;stroke-miterlimit:4;stroke-dasharray:none;stroke-opacity:1"
           id="path2983" /></g><g
         id="g2985"><path
           d="m 845.746,279.277 c -8.562,5.993 -9.644,5.953 -16.277,14.243"
           style="fill:none;stroke:#867df9;stroke-width:10.6217;stroke-linecap:round;stroke-linejoin:miter;stroke-miterlimit:4;stroke-dasharray:none;stroke-opacity:1"
           id="path2987" /></g><g
         id="g2989"><path
           d="m 829.469,293.52 c -5.578,6.972 -5.703,7.75 -8.137,16.277"
           style="fill:none;stroke:#867df9;stroke-width:10.6217;stroke-linecap:round;stroke-linejoin:miter;stroke-miterlimit:4;stroke-dasharray:none;stroke-opacity:1"
           id="path2991" /></g><g
         id="g2993"><path
           d="m 821.332,309.797 c -1.633,5.715 -0.602,6.176 0,12.207"
           style="fill:none;stroke:#867df9;stroke-width:10.6217;stroke-linecap:round;stroke-linejoin:miter;stroke-miterlimit:4;stroke-dasharray:none;stroke-opacity:1"
           id="path2995" /></g><g
         id="g2997"><path
           d="m 821.332,322.004 c 0.414,4.141 -0.293,4.812 2.035,8.137"
           style="fill:none;stroke:#867df9;stroke-width:10.6217;stroke-linecap:round;stroke-linejoin:miter;stroke-miterlimit:4;stroke-dasharray:none;stroke-opacity:1"
           id="path2999" /></g><g
         id="g3001"><path
           d="m 823.367,330.141 c 4.793,6.847 5.535,7.019 12.207,12.207"
           style="fill:none;stroke:#867df9;stroke-width:10.6217;stroke-linecap:round;stroke-linejoin:miter;stroke-miterlimit:4;stroke-dasharray:none;stroke-opacity:1"
           id="path3003" /></g><g
         id="g3005"><path
           d="m 835.574,342.348 c 2.485,1.933 2.946,2.035 6.106,2.035"
           style="fill:none;stroke:#867df9;stroke-width:10.6217;stroke-linecap:round;stroke-linejoin:miter;stroke-miterlimit:4;stroke-dasharray:none;stroke-opacity:1"
           id="path3007" /></g><g
         id="g3009"><path
           d="m 841.68,344.383 c 9.047,0 9.578,0.148 18.308,-2.035"
           style="fill:none;stroke:#867df9;stroke-width:10.6217;stroke-linecap:round;stroke-linejoin:miter;stroke-miterlimit:4;stroke-dasharray:none;stroke-opacity:1"
           id="path3011" /></g><g
         id="g3013"><path
           d="m 859.988,342.348 c 3.477,-0.868 3.535,-1.496 6.106,-4.067"
           style="fill:none;stroke:#867df9;stroke-width:10.6217;stroke-linecap:round;stroke-linejoin:miter;stroke-miterlimit:4;stroke-dasharray:none;stroke-opacity:1"
           id="path3015" /></g><g
         id="g3017"><path
           d="m 866.094,338.281 c 5.566,-5.57 5.957,-5.586 10.172,-12.211"
           style="fill:none;stroke:#867df9;stroke-width:10.6217;stroke-linecap:round;stroke-linejoin:miter;stroke-miterlimit:4;stroke-dasharray:none;stroke-opacity:1"
           id="path3019" /></g><g
         id="g3021"><path
           d="m 876.266,326.07 c 2.906,-4.566 3.015,-4.894 4.07,-10.172"
           style="fill:none;stroke:#867df9;stroke-width:10.6217;stroke-linecap:round;stroke-linejoin:miter;stroke-miterlimit:4;stroke-dasharray:none;stroke-opacity:1"
           id="path3023" /></g><g
         id="g3025"><path
           d="m 880.336,315.898 c 0.98,-4.898 0.559,-5.156 0,-10.171"
           style="fill:none;stroke:#867df9;stroke-width:10.6217;stroke-linecap:round;stroke-linejoin:miter;stroke-miterlimit:4;stroke-dasharray:none;stroke-opacity:1"
           id="path3027" /></g><g
         id="g3029"><path
           d="m 880.336,305.727 c -0.461,-4.137 0.074,-4.625 -2.035,-8.141"
           style="fill:none;stroke:#867df9;stroke-width:10.6217;stroke-linecap:round;stroke-linejoin:miter;stroke-miterlimit:4;stroke-dasharray:none;stroke-opacity:1"
           id="path3031" /></g><g
         id="g3033"><path
           d="m 878.301,297.586 c -3.996,-6.656 -4.606,-6.637 -10.172,-12.207"
           style="fill:none;stroke:#867df9;stroke-width:10.6217;stroke-linecap:round;stroke-linejoin:miter;stroke-miterlimit:4;stroke-dasharray:none;stroke-opacity:1"
           id="path3035" /></g><g
         id="g3037"><path
           d="m 868.129,285.379 c -2.57,-2.57 -2.734,-2.805 -6.106,-4.07"
           style="fill:none;stroke:#867df9;stroke-width:10.6217;stroke-linecap:round;stroke-linejoin:miter;stroke-miterlimit:4;stroke-dasharray:none;stroke-opacity:1"
           id="path3039" /></g><g
         id="g3041"><path
           d="m 862.023,281.309 c -4.765,-1.786 -5.085,-2.032 -10.171,-2.032"
           style="fill:none;stroke:#867df9;stroke-width:10.6217;stroke-linecap:round;stroke-linejoin:miter;stroke-miterlimit:4;stroke-dasharray:none;stroke-opacity:1"
           id="path3043" /></g><g
         id="g3045"><path
           d="m 851.852,279.277 c -5.086,0 -5.297,0.407 -10.172,2.032"
           style="fill:none;stroke:#867df9;stroke-width:10.6217;stroke-linecap:round;stroke-linejoin:miter;stroke-miterlimit:4;stroke-dasharray:none;stroke-opacity:1"
           id="path3047" /></g><g
         id="g3049"><path
           d="m 841.68,281.309 c -4.282,1.425 -4.071,2.035 -8.141,4.07"
           style="fill:none;stroke:#867df9;stroke-width:10.6217;stroke-linecap:round;stroke-linejoin:miter;stroke-miterlimit:4;stroke-dasharray:none;stroke-opacity:1"
           id="path3051" /></g><g
         id="g3053"><path
           d="m 833.539,285.379 v 0"
           style="fill:none;stroke:#867df9;stroke-width:10.6217;stroke-linecap:round;stroke-linejoin:miter;stroke-miterlimit:4;stroke-dasharray:none;stroke-opacity:1"
           id="path3055" /></g><g
         id="g3057"><path
           d="m 900.684,338.281 c 0,-1.019 -0.629,-1.406 0,-2.035"
           style="fill:none;stroke:#867df9;stroke-width:10.6217;stroke-linecap:round;stroke-linejoin:miter;stroke-miterlimit:4;stroke-dasharray:none;stroke-opacity:1"
           id="path3059" /></g><g
         id="g3061"><path
           d="m 900.684,336.246 c 1.406,-1.406 2.656,-0.344 4.066,-2.035"
           style="fill:none;stroke:#867df9;stroke-width:10.6217;stroke-linecap:round;stroke-linejoin:miter;stroke-miterlimit:4;stroke-dasharray:none;stroke-opacity:1"
           id="path3063" /></g><g
         id="g3065"><path
           d="m 904.75,334.211 c 3.68,-4.414 3.453,-4.871 6.105,-10.172"
           style="fill:none;stroke:#867df9;stroke-width:10.6217;stroke-linecap:round;stroke-linejoin:miter;stroke-miterlimit:4;stroke-dasharray:none;stroke-opacity:1"
           id="path3067" /></g><g
         id="g3069"><path
           d="m 910.855,324.039 c 10.575,-21.148 10.75,-21.133 20.348,-42.73"
           style="fill:none;stroke:#867df9;stroke-width:10.6217;stroke-linecap:round;stroke-linejoin:miter;stroke-miterlimit:4;stroke-dasharray:none;stroke-opacity:1"
           id="path3071" /></g><g
         id="g3073"><path
           d="m 931.203,281.309 c 2.609,-5.871 1.684,-6.247 4.067,-12.207"
           style="fill:none;stroke:#867df9;stroke-width:10.6217;stroke-linecap:round;stroke-linejoin:miter;stroke-miterlimit:4;stroke-dasharray:none;stroke-opacity:1"
           id="path3075" /></g><g
         id="g3077"><path
           d="m 935.27,269.102 c 1.687,-4.215 1.578,-4.399 4.07,-8.137"
           style="fill:none;stroke:#867df9;stroke-width:10.6217;stroke-linecap:round;stroke-linejoin:miter;stroke-miterlimit:4;stroke-dasharray:none;stroke-opacity:1"
           id="path3079" /></g><g
         id="g3081"><path
           d="m 939.34,260.965 c 1.578,-2.367 3.722,-6.387 4.07,-4.07"
           style="fill:none;stroke:#867df9;stroke-width:10.6217;stroke-linecap:round;stroke-linejoin:miter;stroke-miterlimit:4;stroke-dasharray:none;stroke-opacity:1"
           id="path3083" /></g><g
         id="g3085"><path
           d="m 943.41,256.895 c 2.703,18.031 -1.383,22.898 2.035,44.761"
           style="fill:none;stroke:#867df9;stroke-width:10.6217;stroke-linecap:round;stroke-linejoin:miter;stroke-miterlimit:4;stroke-dasharray:none;stroke-opacity:1"
           id="path3087" /></g><g
         id="g3089"><path
           d="m 945.445,301.656 c 1.668,10.692 4.707,10.051 8.137,20.348"
           style="fill:none;stroke:#867df9;stroke-width:10.6217;stroke-linecap:round;stroke-linejoin:miter;stroke-miterlimit:4;stroke-dasharray:none;stroke-opacity:1"
           id="path3091" /></g><g
         id="g3093"><path
           d="m 953.582,322.004 c 0.637,1.91 0,2.035 0,4.066"
           style="fill:none;stroke:#867df9;stroke-width:10.6217;stroke-linecap:round;stroke-linejoin:miter;stroke-miterlimit:4;stroke-dasharray:none;stroke-opacity:1"
           id="path3095" /></g><g
         id="g3097"><path
           d="m 953.582,326.07 v 0"
           style="fill:none;stroke:#867df9;stroke-width:10.6217;stroke-linecap:round;stroke-linejoin:miter;stroke-miterlimit:4;stroke-dasharray:none;stroke-opacity:1"
           id="path3099" /></g><g
         id="g3101"><path
           d="m 914.926,309.797 c 3.051,1.015 2.922,2.031 6.101,2.031"
           style="fill:none;stroke:#867df9;stroke-width:10.6217;stroke-linecap:round;stroke-linejoin:miter;stroke-miterlimit:4;stroke-dasharray:none;stroke-opacity:1"
           id="path3103" /></g><g
         id="g3105"><path
           d="m 921.027,311.828 c 15.129,0 15.262,-1.016 30.52,-2.031"
           style="fill:none;stroke:#867df9;stroke-width:10.6217;stroke-linecap:round;stroke-linejoin:miter;stroke-miterlimit:4;stroke-dasharray:none;stroke-opacity:1"
           id="path3107" /></g><g
         id="g3109"><path
           d="m 951.547,309.797 v 0"
           style="fill:none;stroke:#867df9;stroke-width:10.6217;stroke-linecap:round;stroke-linejoin:miter;stroke-miterlimit:4;stroke-dasharray:none;stroke-opacity:1"
           id="path3111" /></g><g
         id="g3113"><path
           d="m 996.309,271.137 c -5.086,20.347 -6.079,20.222 -10.172,40.691"
           style="fill:none;stroke:#867df9;stroke-width:10.6217;stroke-linecap:round;stroke-linejoin:miter;stroke-miterlimit:4;stroke-dasharray:none;stroke-opacity:1"
           id="path3115" /></g><g
         id="g3117"><path
           d="m 986.137,311.828 c -0.992,4.965 0.558,5.156 0,10.176"
           style="fill:none;stroke:#867df9;stroke-width:10.6217;stroke-linecap:round;stroke-linejoin:miter;stroke-miterlimit:4;stroke-dasharray:none;stroke-opacity:1"
           id="path3119" /></g><g
         id="g3121"><path
           d="m 986.137,322.004 c -0.461,4.137 -1.446,4.016 -2.035,8.137"
           style="fill:none;stroke:#867df9;stroke-width:10.6217;stroke-linecap:round;stroke-linejoin:miter;stroke-miterlimit:4;stroke-dasharray:none;stroke-opacity:1"
           id="path3123" /></g><g
         id="g3125"><path
           d="m 984.102,330.141 c -0.43,3 -0.692,3.339 0,6.105"
           style="fill:none;stroke:#867df9;stroke-width:10.6217;stroke-linecap:round;stroke-linejoin:miter;stroke-miterlimit:4;stroke-dasharray:none;stroke-opacity:1"
           id="path3127" /></g><g
         id="g3129"><path
           d="m 984.102,336.246 c 0.328,1.305 1.019,1.016 2.035,2.035"
           style="fill:none;stroke:#867df9;stroke-width:10.6217;stroke-linecap:round;stroke-linejoin:miter;stroke-miterlimit:4;stroke-dasharray:none;stroke-opacity:1"
           id="path3131" /></g><g
         id="g3133"><path
           d="m 986.137,338.281 v 0"
           style="fill:none;stroke:#867df9;stroke-width:10.6217;stroke-linecap:round;stroke-linejoin:miter;stroke-miterlimit:4;stroke-dasharray:none;stroke-opacity:1"
           id="path3135" /></g><g
         id="g3137"><path
           d="m 992.242,271.137 c 3.051,-1.016 3.051,-2.035 6.102,-2.035"
           style="fill:none;stroke:#867df9;stroke-width:10.6217;stroke-linecap:round;stroke-linejoin:miter;stroke-miterlimit:4;stroke-dasharray:none;stroke-opacity:1"
           id="path3139" /></g><g
         id="g3141"><path
           d="m 998.344,269.102 c 3.054,0 2.961,1.586 6.105,2.035"
           style="fill:none;stroke:#867df9;stroke-width:10.6217;stroke-linecap:round;stroke-linejoin:miter;stroke-miterlimit:4;stroke-dasharray:none;stroke-opacity:1"
           id="path3143" /></g><g
         id="g3145"><path
           d="m 1004.449,271.137 c 3.977,0.57 4.196,-0.789 8.137,0"
           style="fill:none;stroke:#867df9;stroke-width:10.6217;stroke-linecap:round;stroke-linejoin:miter;stroke-miterlimit:4;stroke-dasharray:none;stroke-opacity:1"
           id="path3147" /></g><g
         id="g3149"><path
           d="m 1012.586,271.137 c 6.234,1.246 6.586,1.258 12.207,4.07"
           style="fill:none;stroke:#867df9;stroke-width:10.6217;stroke-linecap:round;stroke-linejoin:miter;stroke-miterlimit:4;stroke-dasharray:none;stroke-opacity:1"
           id="path3151" /></g><g
         id="g3153"><path
           d="m 1024.793,275.207 c 2.516,1.258 4.371,1.656 4.07,4.07"
           style="fill:none;stroke:#867df9;stroke-width:10.6217;stroke-linecap:round;stroke-linejoin:miter;stroke-miterlimit:4;stroke-dasharray:none;stroke-opacity:1"
           id="path3155" /></g><g
         id="g3157"><path
           d="m 1028.863,279.277 c -0.715,5.723 -2.363,6.598 -6.101,12.207"
           style="fill:none;stroke:#867df9;stroke-width:10.6217;stroke-linecap:round;stroke-linejoin:miter;stroke-miterlimit:4;stroke-dasharray:none;stroke-opacity:1"
           id="path3159" /></g><g
         id="g3161"><path
           d="m 1022.762,291.484 c -2.367,3.547 -2.61,3.606 -6.106,6.102"
           style="fill:none;stroke:#867df9;stroke-width:10.6217;stroke-linecap:round;stroke-linejoin:miter;stroke-miterlimit:4;stroke-dasharray:none;stroke-opacity:1"
           id="path3163" /></g><g
         id="g3165"><path
           d="m 1016.656,297.586 c -10.746,7.676 -12.679,6.305 -22.383,14.242"
           style="fill:none;stroke:#867df9;stroke-width:10.6217;stroke-linecap:round;stroke-linejoin:miter;stroke-miterlimit:4;stroke-dasharray:none;stroke-opacity:1"
           id="path3167" /></g><g
         id="g3169"><path
           d="m 994.273,311.828 c -1.488,1.219 -0.957,2.629 0,4.07"
           style="fill:none;stroke:#867df9;stroke-width:10.6217;stroke-linecap:round;stroke-linejoin:miter;stroke-miterlimit:4;stroke-dasharray:none;stroke-opacity:1"
           id="path3171" /></g><g
         id="g3173"><path
           d="m 994.273,315.898 c 1.075,1.614 1.872,1.485 4.071,2.036"
           style="fill:none;stroke:#867df9;stroke-width:10.6217;stroke-linecap:round;stroke-linejoin:miter;stroke-miterlimit:4;stroke-dasharray:none;stroke-opacity:1"
           id="path3175" /></g><g
         id="g3177"><path
           d="m 998.344,317.934 c 14.078,3.519 14.242,3.05 28.484,6.105"
           style="fill:none;stroke:#867df9;stroke-width:10.6217;stroke-linecap:round;stroke-linejoin:miter;stroke-miterlimit:4;stroke-dasharray:none;stroke-opacity:1"
           id="path3179" /></g><g
         id="g3181"><path
           d="m 1026.828,324.039 v 0"
           style="fill:none;stroke:#867df9;stroke-width:10.6217;stroke-linecap:round;stroke-linejoin:miter;stroke-miterlimit:4;stroke-dasharray:none;stroke-opacity:1"
           id="path3183" /></g><g
         id="g3185"><path
           d="m 1077.695,265.031 c -1.015,5.09 -0.328,5.293 -2.035,10.176"
           style="fill:none;stroke:#867df9;stroke-width:10.6217;stroke-linecap:round;stroke-linejoin:miter;stroke-miterlimit:4;stroke-dasharray:none;stroke-opacity:1"
           id="path3187" /></g><g
         id="g3189"><path
           d="m 1075.66,275.207 c -5.414,15.465 -7.816,14.84 -12.207,30.52"
           style="fill:none;stroke:#867df9;stroke-width:10.6217;stroke-linecap:round;stroke-linejoin:miter;stroke-miterlimit:4;stroke-dasharray:none;stroke-opacity:1"
           id="path3191" /></g><g
         id="g3193"><path
           d="m 1063.453,305.727 c -2.73,9.753 -1.019,10.171 -2.035,20.343"
           style="fill:none;stroke:#867df9;stroke-width:10.6217;stroke-linecap:round;stroke-linejoin:miter;stroke-miterlimit:4;stroke-dasharray:none;stroke-opacity:1"
           id="path3195" /></g><g
         id="g3197"><path
           d="m 1061.418,326.07 v 0"
           style="fill:none;stroke:#867df9;stroke-width:10.6217;stroke-linecap:round;stroke-linejoin:miter;stroke-miterlimit:4;stroke-dasharray:none;stroke-opacity:1"
           id="path3199" /></g><g
         id="g3201"><path
           d="m 1063.453,263 c 0,-1.02 -0.793,-1.641 0,-2.035"
           style="fill:none;stroke:#867df9;stroke-width:10.6217;stroke-linecap:round;stroke-linejoin:miter;stroke-miterlimit:4;stroke-dasharray:none;stroke-opacity:1"
           id="path3203" /></g><g
         id="g3205"><path
           d="m 1063.453,260.965 c 3.274,-1.637 3.988,-1.66 8.137,-2.035"
           style="fill:none;stroke:#867df9;stroke-width:10.6217;stroke-linecap:round;stroke-linejoin:miter;stroke-miterlimit:4;stroke-dasharray:none;stroke-opacity:1"
           id="path3207" /></g><g
         id="g3209"><path
           d="m 1071.59,258.93 c 7.043,-0.641 7.238,-0.934 14.242,0"
           style="fill:none;stroke:#867df9;stroke-width:10.6217;stroke-linecap:round;stroke-linejoin:miter;stroke-miterlimit:4;stroke-dasharray:none;stroke-opacity:1"
           id="path3211" /></g><g
         id="g3213"><path
           d="m 1085.832,258.93 c 8.254,1.101 8.688,0.746 16.277,4.07"
           style="fill:none;stroke:#867df9;stroke-width:10.6217;stroke-linecap:round;stroke-linejoin:miter;stroke-miterlimit:4;stroke-dasharray:none;stroke-opacity:1"
           id="path3215" /></g><g
         id="g3217"><path
           d="m 1102.109,263 c 8.688,3.797 8.918,4.285 16.278,10.172"
           style="fill:none;stroke:#867df9;stroke-width:10.6217;stroke-linecap:round;stroke-linejoin:miter;stroke-miterlimit:4;stroke-dasharray:none;stroke-opacity:1"
           id="path3219" /></g><g
         id="g3221"><path
           d="m 1118.387,273.172 c 2.812,2.25 2.593,2.781 4.07,6.105"
           style="fill:none;stroke:#867df9;stroke-width:10.6217;stroke-linecap:round;stroke-linejoin:miter;stroke-miterlimit:4;stroke-dasharray:none;stroke-opacity:1"
           id="path3223" /></g><g
         id="g3225"><path
           d="m 1122.457,279.277 c 2.59,5.828 2.824,5.973 4.07,12.207"
           style="fill:none;stroke:#867df9;stroke-width:10.6217;stroke-linecap:round;stroke-linejoin:miter;stroke-miterlimit:4;stroke-dasharray:none;stroke-opacity:1"
           id="path3227" /></g><g
         id="g3229"><path
           d="m 1126.527,291.484 c 0.789,3.942 0.719,4.168 0,8.137"
           style="fill:none;stroke:#867df9;stroke-width:10.6217;stroke-linecap:round;stroke-linejoin:miter;stroke-miterlimit:4;stroke-dasharray:none;stroke-opacity:1"
           id="path3231" /></g><g
         id="g3233"><path
           d="m 1126.527,299.621 c -1.312,7.223 -0.312,8.137 -4.07,14.242"
           style="fill:none;stroke:#867df9;stroke-width:10.6217;stroke-linecap:round;stroke-linejoin:miter;stroke-miterlimit:4;stroke-dasharray:none;stroke-opacity:1"
           id="path3235" /></g><g
         id="g3237"><path
           d="m 1122.457,313.863 c -4.379,7.117 -4.91,8.106 -12.207,12.207"
           style="fill:none;stroke:#867df9;stroke-width:10.6217;stroke-linecap:round;stroke-linejoin:miter;stroke-miterlimit:4;stroke-dasharray:none;stroke-opacity:1"
           id="path3239" /></g><g
         id="g3241"><path
           d="m 1110.25,326.07 c -8.98,5.051 -9.965,5.118 -20.348,6.106"
           style="fill:none;stroke:#867df9;stroke-width:10.6217;stroke-linecap:round;stroke-linejoin:miter;stroke-miterlimit:4;stroke-dasharray:none;stroke-opacity:1"
           id="path3243" /></g><g
         id="g3245"><path
           d="m 1089.902,332.176 c -10.98,1.047 -11.289,-0.371 -22.379,-2.035"
           style="fill:none;stroke:#867df9;stroke-width:10.6217;stroke-linecap:round;stroke-linejoin:miter;stroke-miterlimit:4;stroke-dasharray:none;stroke-opacity:1"
           id="path3247" /></g><g
         id="g3249"><path
           d="m 1067.523,330.141 c -9.257,-1.387 -9.539,-1.145 -18.312,-4.071"
           style="fill:none;stroke:#867df9;stroke-width:10.6217;stroke-linecap:round;stroke-linejoin:miter;stroke-miterlimit:4;stroke-dasharray:none;stroke-opacity:1"
           id="path3251" /></g><g
         id="g3253"><path
           d="m 1049.211,326.07 c -3.434,-1.14 -3.051,-2.031 -6.106,-4.066"
           style="fill:none;stroke:#867df9;stroke-width:10.6217;stroke-linecap:round;stroke-linejoin:miter;stroke-miterlimit:4;stroke-dasharray:none;stroke-opacity:1"
           id="path3255" /></g><g
         id="g3257"><path
           d="m 1043.105,322.004 v 0"
           style="fill:none;stroke:#867df9;stroke-width:10.6217;stroke-linecap:round;stroke-linejoin:miter;stroke-miterlimit:4;stroke-dasharray:none;stroke-opacity:1"
           id="path3259" /></g><g
         id="g3261"><path
           d="m 190.598,509.188 c 0,-1.016 -0.512,-1.524 0,-2.036"
           style="fill:none;stroke:#867df9;stroke-width:10.6217;stroke-linecap:round;stroke-linejoin:miter;stroke-miterlimit:4;stroke-dasharray:none;stroke-opacity:1"
           id="path3263" /></g><g
         id="g3265"><path
           d="m 190.598,507.152 c 0.507,-0.507 1.183,0.512 2.031,0"
           style="fill:none;stroke:#867df9;stroke-width:10.6217;stroke-linecap:round;stroke-linejoin:miter;stroke-miterlimit:4;stroke-dasharray:none;stroke-opacity:1"
           id="path3267" /></g><g
         id="g3269"><path
           d="m 192.629,507.152 c 4.242,-2.543 3.547,-3.968 8.141,-6.101"
           style="fill:none;stroke:#867df9;stroke-width:10.6217;stroke-linecap:round;stroke-linejoin:miter;stroke-miterlimit:4;stroke-dasharray:none;stroke-opacity:1"
           id="path3271" /></g><g
         id="g3273"><path
           d="m 200.77,501.051 c 23.89,-11.094 23.949,-11.461 48.832,-20.348"
           style="fill:none;stroke:#867df9;stroke-width:10.6217;stroke-linecap:round;stroke-linejoin:miter;stroke-miterlimit:4;stroke-dasharray:none;stroke-opacity:1"
           id="path3275" /></g><g
         id="g3277"><path
           d="m 249.602,480.703 c 32.086,-11.457 32.148,-11.726 65.105,-20.344"
           style="fill:none;stroke:#867df9;stroke-width:10.6217;stroke-linecap:round;stroke-linejoin:miter;stroke-miterlimit:4;stroke-dasharray:none;stroke-opacity:1"
           id="path3279" /></g><g
         id="g3281"><path
           d="m 314.707,460.359 c 33.168,-8.675 33.395,-8.109 67.145,-14.242"
           style="fill:none;stroke:#867df9;stroke-width:10.6217;stroke-linecap:round;stroke-linejoin:miter;stroke-miterlimit:4;stroke-dasharray:none;stroke-opacity:1"
           id="path3283" /></g><g
         id="g3285"><path
           d="m 381.852,446.117 c 33.39,-6.074 33.472,-5.801 67.144,-10.176"
           style="fill:none;stroke:#867df9;stroke-width:10.6217;stroke-linecap:round;stroke-linejoin:miter;stroke-miterlimit:4;stroke-dasharray:none;stroke-opacity:1"
           id="path3287" /></g><g
         id="g3289"><path
           d="M 448.996,435.941 C 595.391,416.918 595.141,414.312 741.98,399.32"
           style="fill:none;stroke:#867df9;stroke-width:10.6217;stroke-linecap:round;stroke-linejoin:miter;stroke-miterlimit:4;stroke-dasharray:none;stroke-opacity:1"
           id="path3291" /></g><g
         id="g3293"><path
           d="m 741.98,399.32 c 191.926,-19.597 192.336,-15.648 384.547,-32.554"
           style="fill:none;stroke:#867df9;stroke-width:10.6217;stroke-linecap:round;stroke-linejoin:miter;stroke-miterlimit:4;stroke-dasharray:none;stroke-opacity:1"
           id="path3295" /></g><g
         id="g3297"><path
           d="m 1126.527,366.766 c 27.528,-2.422 27.567,-2.407 54.934,-6.106"
           style="fill:none;stroke:#867df9;stroke-width:10.6217;stroke-linecap:round;stroke-linejoin:miter;stroke-miterlimit:4;stroke-dasharray:none;stroke-opacity:1"
           id="path3299" /></g><g
         id="g3301"><path
           d="m 1181.461,360.66 c 10.273,-1.387 10.172,-2.035 20.348,-4.07"
           style="fill:none;stroke:#867df9;stroke-width:10.6217;stroke-linecap:round;stroke-linejoin:miter;stroke-miterlimit:4;stroke-dasharray:none;stroke-opacity:1"
           id="path3303" /></g><g
         id="g3305"><path
           d="m 1201.809,356.59 v 0"
           style="fill:none;stroke:#867df9;stroke-width:10.6217;stroke-linecap:round;stroke-linejoin:miter;stroke-miterlimit:4;stroke-dasharray:none;stroke-opacity:1"
           id="path3307" /></g><g
         id="g3309"><path
           d="m 131.598,207.438 c 4.312,-6.469 5.101,-6.024 8.629,-12.942"
           style="fill:none;stroke:#867df9;stroke-width:5.31083;stroke-linecap:round;stroke-linejoin:miter;stroke-miterlimit:4;stroke-dasharray:none;stroke-opacity:1"
           id="path3311" /></g><g
         id="g3313"><path
           d="m 140.227,194.496 c 15.89,-31.191 15.808,-31.371 30.199,-63.281"
           style="fill:none;stroke:#867df9;stroke-width:5.31083;stroke-linecap:round;stroke-linejoin:miter;stroke-miterlimit:4;stroke-dasharray:none;stroke-opacity:1"
           id="path3315" /></g><g
         id="g3317"><path
           d="m 170.426,131.215 c 2.152,-4.766 1.008,-5.203 2.879,-10.067"
           style="fill:none;stroke:#867df9;stroke-width:5.31083;stroke-linecap:round;stroke-linejoin:miter;stroke-miterlimit:4;stroke-dasharray:none;stroke-opacity:1"
           id="path3319" /></g><g
         id="g3321"><path
           d="m 173.305,121.148 c 1.722,-4.484 2.57,-4.144 4.312,-8.628"
           style="fill:none;stroke:#867df9;stroke-width:5.31083;stroke-linecap:round;stroke-linejoin:miter;stroke-miterlimit:4;stroke-dasharray:none;stroke-opacity:1"
           id="path3323" /></g><g
         id="g3325"><path
           d="m 177.617,112.52 c 3.289,-8.461 2.531,-8.758 5.754,-17.258"
           style="fill:none;stroke:#867df9;stroke-width:5.31083;stroke-linecap:round;stroke-linejoin:miter;stroke-miterlimit:4;stroke-dasharray:none;stroke-opacity:1"
           id="path3327" /></g><g
         id="g3329"><path
           d="m 183.371,95.262 c 4.688,-12.356 6.141,-23.664 10.067,-24.45"
           style="fill:none;stroke:#867df9;stroke-width:5.31083;stroke-linecap:round;stroke-linejoin:miter;stroke-miterlimit:4;stroke-dasharray:none;stroke-opacity:1"
           id="path3331" /></g><g
         id="g3333"><path
           d="m 193.438,70.812 c 3.265,-0.656 1.402,10.981 4.316,21.571"
           style="fill:none;stroke:#867df9;stroke-width:5.31083;stroke-linecap:round;stroke-linejoin:miter;stroke-miterlimit:4;stroke-dasharray:none;stroke-opacity:1"
           id="path3335" /></g><g
         id="g3337"><path
           d="m 197.754,92.383 c 4.996,18.176 6.406,17.828 11.504,35.957"
           style="fill:none;stroke:#867df9;stroke-width:5.31083;stroke-linecap:round;stroke-linejoin:miter;stroke-miterlimit:4;stroke-dasharray:none;stroke-opacity:1"
           id="path3339" /></g><g
         id="g3341"><path
           d="m 209.258,128.34 c 1.375,4.883 0.207,5.144 1.437,10.066"
           style="fill:none;stroke:#867df9;stroke-width:5.31083;stroke-linecap:round;stroke-linejoin:miter;stroke-miterlimit:4;stroke-dasharray:none;stroke-opacity:1"
           id="path3343" /></g><g
         id="g3345"><path
           d="m 210.695,138.406 c 3.086,12.336 3.981,12.137 7.192,24.449"
           style="fill:none;stroke:#867df9;stroke-width:5.31083;stroke-linecap:round;stroke-linejoin:miter;stroke-miterlimit:4;stroke-dasharray:none;stroke-opacity:1"
           id="path3347" /></g><g
         id="g3349"><path
           d="m 217.887,162.855 c 1.101,4.227 0.218,4.438 1.437,8.629"
           style="fill:none;stroke:#867df9;stroke-width:5.31083;stroke-linecap:round;stroke-linejoin:miter;stroke-miterlimit:4;stroke-dasharray:none;stroke-opacity:1"
           id="path3351" /></g><g
         id="g3353"><path
           d="m 219.324,171.484 c 3.813,13.071 4.727,12.875 8.629,25.887"
           style="fill:none;stroke:#867df9;stroke-width:5.31083;stroke-linecap:round;stroke-linejoin:miter;stroke-miterlimit:4;stroke-dasharray:none;stroke-opacity:1"
           id="path3355" /></g><g
         id="g3357"><path
           d="m 227.953,197.371 c 0.414,1.371 -0.418,2.457 0,2.879"
           style="fill:none;stroke:#867df9;stroke-width:5.31083;stroke-linecap:round;stroke-linejoin:miter;stroke-miterlimit:4;stroke-dasharray:none;stroke-opacity:1"
           id="path3359" /></g><g
         id="g3361"><path
           d="m 227.953,200.25 c 0.301,0.297 1.442,-0.605 1.442,-1.441"
           style="fill:none;stroke:#867df9;stroke-width:5.31083;stroke-linecap:round;stroke-linejoin:miter;stroke-miterlimit:4;stroke-dasharray:none;stroke-opacity:1"
           id="path3363" /></g><g
         id="g3365"><path
           d="m 229.395,198.809 c 0,-1.321 -0.719,-1.438 -1.442,-2.875"
           style="fill:none;stroke:#867df9;stroke-width:5.31083;stroke-linecap:round;stroke-linejoin:miter;stroke-miterlimit:4;stroke-dasharray:none;stroke-opacity:1"
           id="path3367" /></g><g
         id="g3369"><path
           d="m 227.953,195.934 v 0"
           style="fill:none;stroke:#867df9;stroke-width:5.31083;stroke-linecap:round;stroke-linejoin:miter;stroke-miterlimit:4;stroke-dasharray:none;stroke-opacity:1"
           id="path3371" /></g><g
         id="g3373"><path
           d="m 84.137,246.27 c 12.222,-3.594 12.402,-3.071 24.449,-7.192"
           style="fill:none;stroke:#867df9;stroke-width:5.31083;stroke-linecap:round;stroke-linejoin:miter;stroke-miterlimit:4;stroke-dasharray:none;stroke-opacity:1"
           id="path3375" /></g><g
         id="g3377"><path
           d="m 108.586,239.078 c 15.277,-5.226 15.301,-5.266 30.203,-11.504"
           style="fill:none;stroke:#867df9;stroke-width:5.31083;stroke-linecap:round;stroke-linejoin:miter;stroke-miterlimit:4;stroke-dasharray:none;stroke-opacity:1"
           id="path3379" /></g><g
         id="g3381"><path
           d="m 138.789,227.574 c 16.02,-6.707 16.121,-6.625 31.637,-14.383"
           style="fill:none;stroke:#867df9;stroke-width:5.31083;stroke-linecap:round;stroke-linejoin:miter;stroke-miterlimit:4;stroke-dasharray:none;stroke-opacity:1"
           id="path3383" /></g><g
         id="g3385"><path
           d="M 170.426,213.191 C 176.484,210.164 176,208.969 181.934,206"
           style="fill:none;stroke:#867df9;stroke-width:5.31083;stroke-linecap:round;stroke-linejoin:miter;stroke-miterlimit:4;stroke-dasharray:none;stroke-opacity:1"
           id="path3387" /></g><g
         id="g3389"><path
           d="m 181.934,206 c 1.257,-0.629 1.918,0.48 2.875,0"
           style="fill:none;stroke:#867df9;stroke-width:5.31083;stroke-linecap:round;stroke-linejoin:miter;stroke-miterlimit:4;stroke-dasharray:none;stroke-opacity:1"
           id="path3391" /></g><g
         id="g3393"><path
           d="m 184.809,206 c 0.48,-0.238 -0.36,-1.078 0,-1.438"
           style="fill:none;stroke:#867df9;stroke-width:5.31083;stroke-linecap:round;stroke-linejoin:miter;stroke-miterlimit:4;stroke-dasharray:none;stroke-opacity:1"
           id="path3395" /></g><g
         id="g3397"><path
           d="m 184.809,204.562 c 0.359,-0.359 0.996,-0.445 1.437,0"
           style="fill:none;stroke:#867df9;stroke-width:5.31083;stroke-linecap:round;stroke-linejoin:miter;stroke-miterlimit:4;stroke-dasharray:none;stroke-opacity:1"
           id="path3399" /></g><g
         id="g3401"><path
           d="m 186.246,204.562 c 0.996,0.993 0.242,1.918 1.442,2.876"
           style="fill:none;stroke:#867df9;stroke-width:5.31083;stroke-linecap:round;stroke-linejoin:miter;stroke-miterlimit:4;stroke-dasharray:none;stroke-opacity:1"
           id="path3403" /></g><g
         id="g3405"><path
           d="m 187.688,207.438 c 2.394,1.917 3.109,1.117 5.75,2.878"
           style="fill:none;stroke:#867df9;stroke-width:5.31083;stroke-linecap:round;stroke-linejoin:miter;stroke-miterlimit:4;stroke-dasharray:none;stroke-opacity:1"
           id="path3407" /></g><g
         id="g3409"><path
           d="m 193.438,210.316 c 1.671,1.114 1.144,1.887 2.878,2.875"
           style="fill:none;stroke:#867df9;stroke-width:5.31083;stroke-linecap:round;stroke-linejoin:miter;stroke-miterlimit:4;stroke-dasharray:none;stroke-opacity:1"
           id="path3411" /></g><g
         id="g3413"><path
           d="m 196.316,213.191 c 3.297,1.887 3.832,1.012 7.188,2.875"
           style="fill:none;stroke:#867df9;stroke-width:5.31083;stroke-linecap:round;stroke-linejoin:miter;stroke-miterlimit:4;stroke-dasharray:none;stroke-opacity:1"
           id="path3415" /></g><g
         id="g3417"><path
           d="m 203.504,216.066 c 3.117,1.735 2.633,2.559 5.754,4.317"
           style="fill:none;stroke:#867df9;stroke-width:5.31083;stroke-linecap:round;stroke-linejoin:miter;stroke-miterlimit:4;stroke-dasharray:none;stroke-opacity:1"
           id="path3419" /></g><g
         id="g3421"><path
           d="m 209.258,220.383 c 8.383,4.715 8.504,4.59 17.258,8.629"
           style="fill:none;stroke:#867df9;stroke-width:5.31083;stroke-linecap:round;stroke-linejoin:miter;stroke-miterlimit:4;stroke-dasharray:none;stroke-opacity:1"
           id="path3423" /></g><g
         id="g3425"><path
           d="m 226.516,229.012 c 9.941,4.59 9.949,4.668 20.136,8.629"
           style="fill:none;stroke:#867df9;stroke-width:5.31083;stroke-linecap:round;stroke-linejoin:miter;stroke-miterlimit:4;stroke-dasharray:none;stroke-opacity:1"
           id="path3427" /></g><g
         id="g3429"><path
           d="m 246.652,237.641 c 2.758,1.074 3.028,0.304 5.75,1.437"
           style="fill:none;stroke:#867df9;stroke-width:5.31083;stroke-linecap:round;stroke-linejoin:miter;stroke-miterlimit:4;stroke-dasharray:none;stroke-opacity:1"
           id="path3431" /></g><g
         id="g3433"><path
           d="m 252.402,239.078 c 5.91,2.461 7.16,3.891 11.508,5.754"
           style="fill:none;stroke:#867df9;stroke-width:5.31083;stroke-linecap:round;stroke-linejoin:miter;stroke-miterlimit:4;stroke-dasharray:none;stroke-opacity:1"
           id="path3435" /></g><g
         id="g3437"><path
           d="m 263.91,244.832 c 0.688,0.293 -0.719,-0.719 -1.437,-1.437"
           style="fill:none;stroke:#867df9;stroke-width:5.31083;stroke-linecap:round;stroke-linejoin:miter;stroke-miterlimit:4;stroke-dasharray:none;stroke-opacity:1"
           id="path3439" /></g><g
         id="g3441"><path
           d="m 262.473,243.395 v 0"
           style="fill:none;stroke:#867df9;stroke-width:5.31083;stroke-linecap:round;stroke-linejoin:miter;stroke-miterlimit:4;stroke-dasharray:none;stroke-opacity:1"
           id="path3443" /></g><g
         id="g3445"><path
           d="m 168.988,256.336 c 0.719,-1.438 0.34,-1.774 1.438,-2.875"
           style="fill:none;stroke:#867df9;stroke-width:5.31083;stroke-linecap:round;stroke-linejoin:miter;stroke-miterlimit:4;stroke-dasharray:none;stroke-opacity:1"
           id="path3447" /></g><g
         id="g3449"><path
           d="m 170.426,253.461 c 1.777,-1.773 2.519,-1.078 4.316,-2.875"
           style="fill:none;stroke:#867df9;stroke-width:5.31083;stroke-linecap:round;stroke-linejoin:miter;stroke-miterlimit:4;stroke-dasharray:none;stroke-opacity:1"
           id="path3451" /></g><g
         id="g3453"><path
           d="m 174.742,250.586 c 1.797,-1.801 0.875,-2.762 2.875,-4.316"
           style="fill:none;stroke:#867df9;stroke-width:5.31083;stroke-linecap:round;stroke-linejoin:miter;stroke-miterlimit:4;stroke-dasharray:none;stroke-opacity:1"
           id="path3455" /></g><g
         id="g3457"><path
           d="m 177.617,246.27 c 4.473,-3.477 4.625,-4.153 10.071,-5.754"
           style="fill:none;stroke:#867df9;stroke-width:5.31083;stroke-linecap:round;stroke-linejoin:miter;stroke-miterlimit:4;stroke-dasharray:none;stroke-opacity:1"
           id="path3459" /></g><g
         id="g3461"><path
           d="m 187.688,240.516 c 6.781,-1.993 7.269,-1.438 14.378,-1.438"
           style="fill:none;stroke:#867df9;stroke-width:5.31083;stroke-linecap:round;stroke-linejoin:miter;stroke-miterlimit:4;stroke-dasharray:none;stroke-opacity:1"
           id="path3463" /></g><g
         id="g3465"><path
           d="m 202.066,239.078 c 2.239,0 2.637,0.094 4.317,1.438"
           style="fill:none;stroke:#867df9;stroke-width:5.31083;stroke-linecap:round;stroke-linejoin:miter;stroke-miterlimit:4;stroke-dasharray:none;stroke-opacity:1"
           id="path3467" /></g><g
         id="g3469"><path
           d="m 206.383,240.516 c 1.914,1.535 2.429,1.859 2.875,4.316"
           style="fill:none;stroke:#867df9;stroke-width:5.31083;stroke-linecap:round;stroke-linejoin:miter;stroke-miterlimit:4;stroke-dasharray:none;stroke-opacity:1"
           id="path3471" /></g><g
         id="g3473"><path
           d="m 209.258,244.832 c 0.992,5.453 1.289,6.027 0,11.504"
           style="fill:none;stroke:#867df9;stroke-width:5.31083;stroke-linecap:round;stroke-linejoin:miter;stroke-miterlimit:4;stroke-dasharray:none;stroke-opacity:1"
           id="path3475" /></g><g
         id="g3477"><path
           d="m 209.258,256.336 c -1.586,6.746 -1.602,7.547 -5.754,12.945"
           style="fill:none;stroke:#867df9;stroke-width:5.31083;stroke-linecap:round;stroke-linejoin:miter;stroke-miterlimit:4;stroke-dasharray:none;stroke-opacity:1"
           id="path3479" /></g><g
         id="g3481"><path
           d="m 203.504,269.281 c -3.039,3.953 -4.129,3.254 -8.629,5.754"
           style="fill:none;stroke:#867df9;stroke-width:5.31083;stroke-linecap:round;stroke-linejoin:miter;stroke-miterlimit:4;stroke-dasharray:none;stroke-opacity:1"
           id="path3483" /></g><g
         id="g3485"><path
           d="m 194.875,275.035 c -1.973,1.094 -2.098,1.438 -4.313,1.438"
           style="fill:none;stroke:#867df9;stroke-width:5.31083;stroke-linecap:round;stroke-linejoin:miter;stroke-miterlimit:4;stroke-dasharray:none;stroke-opacity:1"
           id="path3487" /></g><g
         id="g3489"><path
           d="m 190.562,276.473 c -4.257,0 -4.421,-0.387 -8.628,-1.438"
           style="fill:none;stroke:#867df9;stroke-width:5.31083;stroke-linecap:round;stroke-linejoin:miter;stroke-miterlimit:4;stroke-dasharray:none;stroke-opacity:1"
           id="path3491" /></g><g
         id="g3493"><path
           d="m 181.934,275.035 c -1.547,-0.387 -1.883,-0.445 -2.879,-1.437"
           style="fill:none;stroke:#867df9;stroke-width:5.31083;stroke-linecap:round;stroke-linejoin:miter;stroke-miterlimit:4;stroke-dasharray:none;stroke-opacity:1"
           id="path3495" /></g><g
         id="g3497"><path
           d="m 179.055,273.598 c -0.442,-0.446 0,-0.723 0,-1.442"
           style="fill:none;stroke:#867df9;stroke-width:5.31083;stroke-linecap:round;stroke-linejoin:miter;stroke-miterlimit:4;stroke-dasharray:none;stroke-opacity:1"
           id="path3499" /></g><g
         id="g3501"><path
           d="m 179.055,272.156 v 0"
           style="fill:none;stroke:#867df9;stroke-width:5.31083;stroke-linecap:round;stroke-linejoin:miter;stroke-miterlimit:4;stroke-dasharray:none;stroke-opacity:1"
           id="path3503" /></g><g
         id="g3505"><path
           d="m 161.797,302.359 c 0,0.719 -0.359,1.079 0,1.438"
           style="fill:none;stroke:#867df9;stroke-width:5.31083;stroke-linecap:round;stroke-linejoin:miter;stroke-miterlimit:4;stroke-dasharray:none;stroke-opacity:1"
           id="path3507" /></g><g
         id="g3509"><path
           d="m 161.797,303.797 c 0.359,0.359 0.875,-0.375 1.441,0"
           style="fill:none;stroke:#867df9;stroke-width:5.31083;stroke-linecap:round;stroke-linejoin:miter;stroke-miterlimit:4;stroke-dasharray:none;stroke-opacity:1"
           id="path3511" /></g><g
         id="g3513"><path
           d="m 163.238,303.797 c 1.594,1.062 1.141,1.887 2.875,2.879"
           style="fill:none;stroke:#867df9;stroke-width:5.31083;stroke-linecap:round;stroke-linejoin:miter;stroke-miterlimit:4;stroke-dasharray:none;stroke-opacity:1"
           id="path3515" /></g><g
         id="g3517"><path
           d="m 166.113,306.676 c 3.301,1.883 3.449,2.195 7.192,2.875"
           style="fill:none;stroke:#867df9;stroke-width:5.31083;stroke-linecap:round;stroke-linejoin:miter;stroke-miterlimit:4;stroke-dasharray:none;stroke-opacity:1"
           id="path3519" /></g><g
         id="g3521"><path
           d="m 173.305,309.551 c 4.168,0.758 4.961,1.047 8.629,0"
           style="fill:none;stroke:#867df9;stroke-width:5.31083;stroke-linecap:round;stroke-linejoin:miter;stroke-miterlimit:4;stroke-dasharray:none;stroke-opacity:1"
           id="path3523" /></g><g
         id="g3525"><path
           d="m 181.934,309.551 c 1.367,-0.391 0.718,-1.438 1.437,-2.875"
           style="fill:none;stroke:#867df9;stroke-width:5.31083;stroke-linecap:round;stroke-linejoin:miter;stroke-miterlimit:4;stroke-dasharray:none;stroke-opacity:1"
           id="path3527" /></g><g
         id="g3529"><path
           d="m 183.371,306.676 v 0"
           style="fill:none;stroke:#867df9;stroke-width:5.31083;stroke-linecap:round;stroke-linejoin:miter;stroke-miterlimit:4;stroke-dasharray:none;stroke-opacity:1"
           id="path3531" /></g><g
         id="g3533"><path
           d="m 111.461,252.023 c 0,1.438 -0.422,1.614 0,2.875"
           style="fill:none;stroke:#867df9;stroke-width:5.31083;stroke-linecap:round;stroke-linejoin:miter;stroke-miterlimit:4;stroke-dasharray:none;stroke-opacity:1"
           id="path3535" /></g><g
         id="g3537"><path
           d="m 111.461,254.898 c 0.297,0.895 1.301,0.481 1.437,1.438"
           style="fill:none;stroke:#867df9;stroke-width:5.31083;stroke-linecap:round;stroke-linejoin:miter;stroke-miterlimit:4;stroke-dasharray:none;stroke-opacity:1"
           id="path3539" /></g><g
         id="g3541"><path
           d="m 112.898,256.336 c 0.582,4.074 -0.531,4.367 0,8.629"
           style="fill:none;stroke:#867df9;stroke-width:5.31083;stroke-linecap:round;stroke-linejoin:miter;stroke-miterlimit:4;stroke-dasharray:none;stroke-opacity:1"
           id="path3543" /></g><g
         id="g3545"><path
           d="m 112.898,264.965 c 0.907,7.246 2.071,7.105 2.879,14.383"
           style="fill:none;stroke:#867df9;stroke-width:5.31083;stroke-linecap:round;stroke-linejoin:miter;stroke-miterlimit:4;stroke-dasharray:none;stroke-opacity:1"
           id="path3547" /></g><g
         id="g3549"><path
           d="m 115.777,279.348 c 2.067,18.609 2.535,18.675 2.875,37.394"
           style="fill:none;stroke:#867df9;stroke-width:5.31083;stroke-linecap:round;stroke-linejoin:miter;stroke-miterlimit:4;stroke-dasharray:none;stroke-opacity:1"
           id="path3551" /></g><g
         id="g3553"><path
           d="m 118.652,316.742 c 0.379,20.828 0.075,20.914 -1.437,41.707"
           style="fill:none;stroke:#867df9;stroke-width:5.31083;stroke-linecap:round;stroke-linejoin:miter;stroke-miterlimit:4;stroke-dasharray:none;stroke-opacity:1"
           id="path3555" /></g><g
         id="g3557"><path
           d="m 117.215,358.449 c -1.363,18.754 -0.18,19.137 -4.317,37.395"
           style="fill:none;stroke:#867df9;stroke-width:5.31083;stroke-linecap:round;stroke-linejoin:miter;stroke-miterlimit:4;stroke-dasharray:none;stroke-opacity:1"
           id="path3559" /></g><g
         id="g3561"><path
           d="m 112.898,395.844 c -4.492,19.851 -5.601,19.867 -12.941,38.828"
           style="fill:none;stroke:#867df9;stroke-width:5.31083;stroke-linecap:round;stroke-linejoin:miter;stroke-miterlimit:4;stroke-dasharray:none;stroke-opacity:1"
           id="path3563" /></g><g
         id="g3565"><path
           d="m 99.957,434.672 c -1.289,3.332 -2.586,2.637 -4.316,5.754"
           style="fill:none;stroke:#867df9;stroke-width:5.31083;stroke-linecap:round;stroke-linejoin:miter;stroke-miterlimit:4;stroke-dasharray:none;stroke-opacity:1"
           id="path3567" /></g><g
         id="g3569"><path
           d="m 95.641,440.426 c -1.864,3.355 -0.836,3.926 -2.875,7.191"
           style="fill:none;stroke:#867df9;stroke-width:5.31083;stroke-linecap:round;stroke-linejoin:miter;stroke-miterlimit:4;stroke-dasharray:none;stroke-opacity:1"
           id="path3571" /></g><g
         id="g3573"><path
           d="m 92.766,447.617 c -5.153,8.242 -6.207,7.633 -11.508,15.821"
           style="fill:none;stroke:#867df9;stroke-width:5.31083;stroke-linecap:round;stroke-linejoin:miter;stroke-miterlimit:4;stroke-dasharray:none;stroke-opacity:1"
           id="path3575" /></g><g
         id="g3577"><path
           d="m 81.258,463.438 c -2.61,4.035 -1.785,4.582 -4.313,8.628"
           style="fill:none;stroke:#867df9;stroke-width:5.31083;stroke-linecap:round;stroke-linejoin:miter;stroke-miterlimit:4;stroke-dasharray:none;stroke-opacity:1"
           id="path3579" /></g><g
         id="g3581"><path
           d="m 76.945,472.066 c -1.066,1.707 -1.859,1.18 -2.875,2.875"
           style="fill:none;stroke:#867df9;stroke-width:5.31083;stroke-linecap:round;stroke-linejoin:miter;stroke-miterlimit:4;stroke-dasharray:none;stroke-opacity:1"
           id="path3583" /></g><g
         id="g3585"><path
           d="m 74.07,474.941 c -1.14,1.899 -0.347,2.676 -1.441,4.317"
           style="fill:none;stroke:#867df9;stroke-width:5.31083;stroke-linecap:round;stroke-linejoin:miter;stroke-miterlimit:4;stroke-dasharray:none;stroke-opacity:1"
           id="path3587" /></g><g
         id="g3589"><path
           d="m 72.629,479.258 c -0.344,0.515 -1.438,0.445 -1.438,0"
           style="fill:none;stroke:#867df9;stroke-width:5.31083;stroke-linecap:round;stroke-linejoin:miter;stroke-miterlimit:4;stroke-dasharray:none;stroke-opacity:1"
           id="path3591" /></g><g
         id="g3593"><path
           d="m 71.191,479.258 c 0,-0.996 0.719,-1.438 1.438,-2.879"
           style="fill:none;stroke:#867df9;stroke-width:5.31083;stroke-linecap:round;stroke-linejoin:miter;stroke-miterlimit:4;stroke-dasharray:none;stroke-opacity:1"
           id="path3595" /></g><g
         id="g3597"><path
           d="m 72.629,476.379 v 0"
           style="fill:none;stroke:#867df9;stroke-width:5.31083;stroke-linecap:round;stroke-linejoin:miter;stroke-miterlimit:4;stroke-dasharray:none;stroke-opacity:1"
           id="path3599" /></g><g
         id="g3601"><path
           d="m 245.215,256.336 c 0,2.879 0.461,2.988 0,5.754"
           style="fill:none;stroke:#867df9;stroke-width:5.31083;stroke-linecap:round;stroke-linejoin:miter;stroke-miterlimit:4;stroke-dasharray:none;stroke-opacity:1"
           id="path3603" /></g><g
         id="g3605"><path
           d="m 245.215,262.09 c -0.258,1.547 -1.281,1.305 -1.442,2.875"
           style="fill:none;stroke:#867df9;stroke-width:5.31083;stroke-linecap:round;stroke-linejoin:miter;stroke-miterlimit:4;stroke-dasharray:none;stroke-opacity:1"
           id="path3607" /></g><g
         id="g3609"><path
           d="m 243.773,264.965 c -0.558,5.621 0.661,5.808 0,11.508"
           style="fill:none;stroke:#867df9;stroke-width:5.31083;stroke-linecap:round;stroke-linejoin:miter;stroke-miterlimit:4;stroke-dasharray:none;stroke-opacity:1"
           id="path3611" /></g><g
         id="g3613"><path
           d="m 243.773,276.473 c -1.5,12.996 -3.257,12.851 -4.312,25.886"
           style="fill:none;stroke:#867df9;stroke-width:5.31083;stroke-linecap:round;stroke-linejoin:miter;stroke-miterlimit:4;stroke-dasharray:none;stroke-opacity:1"
           id="path3615" /></g><g
         id="g3617"><path
           d="m 239.461,302.359 c -1.102,13.571 0.566,13.719 0,27.325"
           style="fill:none;stroke:#867df9;stroke-width:5.31083;stroke-linecap:round;stroke-linejoin:miter;stroke-miterlimit:4;stroke-dasharray:none;stroke-opacity:1"
           id="path3619" /></g><g
         id="g3621"><path
           d="m 239.461,329.684 c -0.152,3.652 -1.356,3.535 -1.438,7.191"
           style="fill:none;stroke:#867df9;stroke-width:5.31083;stroke-linecap:round;stroke-linejoin:miter;stroke-miterlimit:4;stroke-dasharray:none;stroke-opacity:1"
           id="path3623" /></g><g
         id="g3625"><path
           d="m 238.023,336.875 c -0.636,27.266 0.594,27.363 0,54.652"
           style="fill:none;stroke:#867df9;stroke-width:5.31083;stroke-linecap:round;stroke-linejoin:miter;stroke-miterlimit:4;stroke-dasharray:none;stroke-opacity:1"
           id="path3627" /></g><g
         id="g3629"><path
           d="m 238.023,391.527 c -0.128,5.789 -1.437,5.825 -1.437,11.504"
           style="fill:none;stroke:#867df9;stroke-width:5.31083;stroke-linecap:round;stroke-linejoin:miter;stroke-miterlimit:4;stroke-dasharray:none;stroke-opacity:1"
           id="path3631" /></g><g
         id="g3633"><path
           d="m 236.586,403.031 c 0,2.231 1.117,2.094 1.437,4.317"
           style="fill:none;stroke:#867df9;stroke-width:5.31083;stroke-linecap:round;stroke-linejoin:miter;stroke-miterlimit:4;stroke-dasharray:none;stroke-opacity:1"
           id="path3635" /></g><g
         id="g3637"><path
           d="m 238.023,407.348 c 0.403,2.812 -0.613,2.996 0,5.754"
           style="fill:none;stroke:#867df9;stroke-width:5.31083;stroke-linecap:round;stroke-linejoin:miter;stroke-miterlimit:4;stroke-dasharray:none;stroke-opacity:1"
           id="path3639" /></g><g
         id="g3641"><path
           d="m 238.023,413.102 c 0.825,3.71 1.012,3.832 2.875,7.191"
           style="fill:none;stroke:#867df9;stroke-width:5.31083;stroke-linecap:round;stroke-linejoin:miter;stroke-miterlimit:4;stroke-dasharray:none;stroke-opacity:1"
           id="path3643" /></g><g
         id="g3645"><path
           d="m 240.898,420.293 c 1.731,3.113 1.575,3.508 4.317,5.75"
           style="fill:none;stroke:#867df9;stroke-width:5.31083;stroke-linecap:round;stroke-linejoin:miter;stroke-miterlimit:4;stroke-dasharray:none;stroke-opacity:1"
           id="path3647" /></g><g
         id="g3649"><path
           d="m 245.215,426.043 c 5.168,4.23 5.383,4.57 11.504,7.191"
           style="fill:none;stroke:#867df9;stroke-width:5.31083;stroke-linecap:round;stroke-linejoin:miter;stroke-miterlimit:4;stroke-dasharray:none;stroke-opacity:1"
           id="path3651" /></g><g
         id="g3653"><path
           d="m 256.719,433.234 c 3.945,1.692 4.922,0.204 8.629,1.438"
           style="fill:none;stroke:#867df9;stroke-width:5.31083;stroke-linecap:round;stroke-linejoin:miter;stroke-miterlimit:4;stroke-dasharray:none;stroke-opacity:1"
           id="path3655" /></g><g
         id="g3657"><path
           d="m 265.348,434.672 c 0.609,0.203 0.297,1.437 0,1.437"
           style="fill:none;stroke:#867df9;stroke-width:5.31083;stroke-linecap:round;stroke-linejoin:miter;stroke-miterlimit:4;stroke-dasharray:none;stroke-opacity:1"
           id="path3659" /></g><g
         id="g3661"><path
           d="m 265.348,436.109 c -0.422,0 -0.543,-1.136 -1.438,-1.437"
           style="fill:none;stroke:#867df9;stroke-width:5.31083;stroke-linecap:round;stroke-linejoin:miter;stroke-miterlimit:4;stroke-dasharray:none;stroke-opacity:1"
           id="path3663" /></g><g
         id="g3665"><path
           d="m 263.91,434.672 c -1.265,-0.422 -1.437,0 -2.875,0"
           style="fill:none;stroke:#867df9;stroke-width:5.31083;stroke-linecap:round;stroke-linejoin:miter;stroke-miterlimit:4;stroke-dasharray:none;stroke-opacity:1"
           id="path3667" /></g><g
         id="g3669"><path
           d="m 261.035,434.672 v 0"
           style="fill:none;stroke:#867df9;stroke-width:5.31083;stroke-linecap:round;stroke-linejoin:miter;stroke-miterlimit:4;stroke-dasharray:none;stroke-opacity:1"
           id="path3671" /></g><g
         id="g3673"><path
           d="m 74.07,477.82 c 0,0.719 -0.445,0.992 0,1.438"
           style="fill:none;stroke:#867df9;stroke-width:5.31083;stroke-linecap:round;stroke-linejoin:miter;stroke-miterlimit:4;stroke-dasharray:none;stroke-opacity:1"
           id="path3675" /></g><g
         id="g3677"><path
           d="m 74.07,479.258 c 0.992,0.992 1.438,1.437 2.875,1.437"
           style="fill:none;stroke:#867df9;stroke-width:5.31083;stroke-linecap:round;stroke-linejoin:miter;stroke-miterlimit:4;stroke-dasharray:none;stroke-opacity:1"
           id="path3679" /></g><g
         id="g3681"><path
           d="m 76.945,480.695 c 1.438,0 1.34,-1.133 2.875,-1.437"
           style="fill:none;stroke:#867df9;stroke-width:5.31083;stroke-linecap:round;stroke-linejoin:miter;stroke-miterlimit:4;stroke-dasharray:none;stroke-opacity:1"
           id="path3683" /></g><g
         id="g3685"><path
           d="m 79.82,479.258 c 2.063,-0.414 2.348,0.808 4.317,0"
           style="fill:none;stroke:#867df9;stroke-width:5.31083;stroke-linecap:round;stroke-linejoin:miter;stroke-miterlimit:4;stroke-dasharray:none;stroke-opacity:1"
           id="path3687" /></g><g
         id="g3689"><path
           d="m 84.137,479.258 c 10.258,-4.227 10.285,-4.637 20.133,-10.067"
           style="fill:none;stroke:#867df9;stroke-width:5.31083;stroke-linecap:round;stroke-linejoin:miter;stroke-miterlimit:4;stroke-dasharray:none;stroke-opacity:1"
           id="path3691" /></g><g
         id="g3693"><path
           d="m 104.27,469.191 c 11.007,-6.074 10.273,-8.324 21.574,-12.945"
           style="fill:none;stroke:#867df9;stroke-width:5.31083;stroke-linecap:round;stroke-linejoin:miter;stroke-miterlimit:4;stroke-dasharray:none;stroke-opacity:1"
           id="path3695" /></g><g
         id="g3697"><path
           d="m 125.844,456.246 c 4.519,-1.851 5.453,-1.258 10.066,0"
           style="fill:none;stroke:#867df9;stroke-width:5.31083;stroke-linecap:round;stroke-linejoin:miter;stroke-miterlimit:4;stroke-dasharray:none;stroke-opacity:1"
           id="path3699" /></g><g
         id="g3701"><path
           d="m 135.91,456.246 c 3.297,0.899 2.672,2.774 5.754,4.313"
           style="fill:none;stroke:#867df9;stroke-width:5.31083;stroke-linecap:round;stroke-linejoin:miter;stroke-miterlimit:4;stroke-dasharray:none;stroke-opacity:1"
           id="path3703" /></g><g
         id="g3705"><path
           d="m 141.664,460.559 c 1.231,0.617 1.594,-0.512 2.875,0"
           style="fill:none;stroke:#867df9;stroke-width:5.31083;stroke-linecap:round;stroke-linejoin:miter;stroke-miterlimit:4;stroke-dasharray:none;stroke-opacity:1"
           id="path3707" /></g><g
         id="g3709"><path
           d="m 144.539,460.559 c 2.313,0.925 2.539,1.101 4.316,2.879"
           style="fill:none;stroke:#867df9;stroke-width:5.31083;stroke-linecap:round;stroke-linejoin:miter;stroke-miterlimit:4;stroke-dasharray:none;stroke-opacity:1"
           id="path3711" /></g><g
         id="g3713"><path
           d="m 148.855,463.438 c 1.102,1.101 0.336,1.773 1.438,2.874"
           style="fill:none;stroke:#867df9;stroke-width:5.31083;stroke-linecap:round;stroke-linejoin:miter;stroke-miterlimit:4;stroke-dasharray:none;stroke-opacity:1"
           id="path3715" /></g><g
         id="g3717"><path
           d="m 150.293,466.312 c 1.773,1.778 2.016,1.727 4.312,2.879"
           style="fill:none;stroke:#867df9;stroke-width:5.31083;stroke-linecap:round;stroke-linejoin:miter;stroke-miterlimit:4;stroke-dasharray:none;stroke-opacity:1"
           id="path3719" /></g><g
         id="g3721"><path
           d="m 154.605,469.191 c 2.02,1.008 2.083,1.188 4.317,1.438"
           style="fill:none;stroke:#867df9;stroke-width:5.31083;stroke-linecap:round;stroke-linejoin:miter;stroke-miterlimit:4;stroke-dasharray:none;stroke-opacity:1"
           id="path3723" /></g><g
         id="g3725"><path
           d="m 158.922,470.629 c 4.238,0.469 4.367,0.426 8.629,0"
           style="fill:none;stroke:#867df9;stroke-width:5.31083;stroke-linecap:round;stroke-linejoin:miter;stroke-miterlimit:4;stroke-dasharray:none;stroke-opacity:1"
           id="path3727" /></g><g
         id="g3729"><path
           d="m 167.551,470.629 c 2.929,-0.293 3.066,-0.289 5.754,-1.438"
           style="fill:none;stroke:#867df9;stroke-width:5.31083;stroke-linecap:round;stroke-linejoin:miter;stroke-miterlimit:4;stroke-dasharray:none;stroke-opacity:1"
           id="path3731" /></g><g
         id="g3733"><path
           d="m 173.305,469.191 c 2.347,-1.007 2,-1.953 4.312,-2.879"
           style="fill:none;stroke:#867df9;stroke-width:5.31083;stroke-linecap:round;stroke-linejoin:miter;stroke-miterlimit:4;stroke-dasharray:none;stroke-opacity:1"
           id="path3735" /></g><g
         id="g3737"><path
           d="m 177.617,466.312 c 1.285,-0.511 1.571,0.559 2.879,0"
           style="fill:none;stroke:#867df9;stroke-width:5.31083;stroke-linecap:round;stroke-linejoin:miter;stroke-miterlimit:4;stroke-dasharray:none;stroke-opacity:1"
           id="path3739" /></g><g
         id="g3741"><path
           d="m 180.496,466.312 c 8.762,-3.753 9.32,-3.527 17.258,-8.628"
           style="fill:none;stroke:#867df9;stroke-width:5.31083;stroke-linecap:round;stroke-linejoin:miter;stroke-miterlimit:4;stroke-dasharray:none;stroke-opacity:1"
           id="path3743" /></g><g
         id="g3745"><path
           d="m 197.754,457.684 c 2.133,-1.372 1.101,-2.539 2.875,-4.313"
           style="fill:none;stroke:#867df9;stroke-width:5.31083;stroke-linecap:round;stroke-linejoin:miter;stroke-miterlimit:4;stroke-dasharray:none;stroke-opacity:1"
           id="path3747" /></g><g
         id="g3749"><path
           d="m 200.629,453.371 c 1.101,-1.101 1.797,-0.359 2.875,-1.441"
           style="fill:none;stroke:#867df9;stroke-width:5.31083;stroke-linecap:round;stroke-linejoin:miter;stroke-miterlimit:4;stroke-dasharray:none;stroke-opacity:1"
           id="path3751" /></g><g
         id="g3753"><path
           d="m 203.504,451.93 c 1.082,-1.078 0.324,-1.758 1.441,-2.875"
           style="fill:none;stroke:#867df9;stroke-width:5.31083;stroke-linecap:round;stroke-linejoin:miter;stroke-miterlimit:4;stroke-dasharray:none;stroke-opacity:1"
           id="path3755" /></g><g
         id="g3757"><path
           d="m 204.945,449.055 c 3.196,-3.2 6.133,-4.696 7.192,-5.754"
           style="fill:none;stroke:#867df9;stroke-width:5.31083;stroke-linecap:round;stroke-linejoin:miter;stroke-miterlimit:4;stroke-dasharray:none;stroke-opacity:1"
           id="path3759" /></g><g
         id="g3761"><path
           d="m 204.945,449.055 c 1.336,-0.856 3.379,-3.211 7.192,-5.754"
           style="fill:none;stroke:#867df9;stroke-width:5.31083;stroke-linecap:round;stroke-linejoin:miter;stroke-miterlimit:4;stroke-dasharray:none;stroke-opacity:1"
           id="path3763" /></g><g
         id="g3765"><path
           d="m 212.137,443.301 c 2.66,-1.774 2.695,-1.922 5.75,-2.875"
           style="fill:none;stroke:#867df9;stroke-width:5.31083;stroke-linecap:round;stroke-linejoin:miter;stroke-miterlimit:4;stroke-dasharray:none;stroke-opacity:1"
           id="path3767" /></g><g
         id="g3769"><path
           d="m 217.887,440.426 c 8.453,-2.641 8.554,-2.778 17.258,-4.317"
           style="fill:none;stroke:#867df9;stroke-width:5.31083;stroke-linecap:round;stroke-linejoin:miter;stroke-miterlimit:4;stroke-dasharray:none;stroke-opacity:1"
           id="path3771" /></g><g
         id="g3773"><path
           d="m 235.145,436.109 c 3.519,-0.617 3.828,-0.558 7.191,0"
           style="fill:none;stroke:#867df9;stroke-width:5.31083;stroke-linecap:round;stroke-linejoin:miter;stroke-miterlimit:4;stroke-dasharray:none;stroke-opacity:1"
           id="path3775" /></g><g
         id="g3777"><path
           d="m 242.336,436.109 c 0.953,0.161 0.519,1.075 1.437,1.442"
           style="fill:none;stroke:#867df9;stroke-width:5.31083;stroke-linecap:round;stroke-linejoin:miter;stroke-miterlimit:4;stroke-dasharray:none;stroke-opacity:1"
           id="path3779" /></g><g
         id="g3781"><path
           d="m 243.773,437.551 c 2.68,1.07 2.821,1.191 5.754,1.437"
           style="fill:none;stroke:#867df9;stroke-width:5.31083;stroke-linecap:round;stroke-linejoin:miter;stroke-miterlimit:4;stroke-dasharray:none;stroke-opacity:1"
           id="path3783" /></g><g
         id="g3785"><path
           d="m 249.527,438.988 c 5.696,0.473 6.008,-0.613 11.508,0"
           style="fill:none;stroke:#867df9;stroke-width:5.31083;stroke-linecap:round;stroke-linejoin:miter;stroke-miterlimit:4;stroke-dasharray:none;stroke-opacity:1"
           id="path3787" /></g><g
         id="g3789"><path
           d="m 261.035,438.988 c 0.969,0.106 0.543,1.141 1.438,1.438"
           style="fill:none;stroke:#867df9;stroke-width:5.31083;stroke-linecap:round;stroke-linejoin:miter;stroke-miterlimit:4;stroke-dasharray:none;stroke-opacity:1"
           id="path3791" /></g><g
         id="g3793"><path
           d="m 262.473,440.426 c 1.261,0.422 1.437,0 2.875,0"
           style="fill:none;stroke:#867df9;stroke-width:5.31083;stroke-linecap:round;stroke-linejoin:miter;stroke-miterlimit:4;stroke-dasharray:none;stroke-opacity:1"
           id="path3795" /></g><g
         id="g3797"><path
           d="m 265.348,440.426 v 0"
           style="fill:none;stroke:#867df9;stroke-width:5.31083;stroke-linecap:round;stroke-linejoin:miter;stroke-miterlimit:4;stroke-dasharray:none;stroke-opacity:1"
           id="path3799" /></g><g
         id="g3801"><path
           d="m 133.035,243.395 c 1.438,5.753 1.906,5.695 2.875,11.503"
           style="fill:none;stroke:#867df9;stroke-width:5.31083;stroke-linecap:round;stroke-linejoin:miter;stroke-miterlimit:4;stroke-dasharray:none;stroke-opacity:1"
           id="path3803" /></g><g
         id="g3805"><path
           d="m 135.91,254.898 c 0.469,2.821 -0.531,3.098 0,5.754"
           style="fill:none;stroke:#867df9;stroke-width:5.31083;stroke-linecap:round;stroke-linejoin:miter;stroke-miterlimit:4;stroke-dasharray:none;stroke-opacity:1"
           id="path3807" /></g><g
         id="g3809"><path
           d="m 135.91,260.652 c 0.188,0.938 1.07,0.52 1.438,1.438"
           style="fill:none;stroke:#867df9;stroke-width:5.31083;stroke-linecap:round;stroke-linejoin:miter;stroke-miterlimit:4;stroke-dasharray:none;stroke-opacity:1"
           id="path3811" /></g><g
         id="g3813"><path
           d="m 137.348,262.09 c 1.07,2.676 1.023,2.84 1.441,5.754"
           style="fill:none;stroke:#867df9;stroke-width:5.31083;stroke-linecap:round;stroke-linejoin:miter;stroke-miterlimit:4;stroke-dasharray:none;stroke-opacity:1"
           id="path3815" /></g><g
         id="g3817"><path
           d="m 138.789,267.844 c 0.301,2.121 -0.516,2.254 0,4.312"
           style="fill:none;stroke:#867df9;stroke-width:5.31083;stroke-linecap:round;stroke-linejoin:miter;stroke-miterlimit:4;stroke-dasharray:none;stroke-opacity:1"
           id="path3819" /></g><g
         id="g3821"><path
           d="m 138.789,272.156 c 0.922,3.696 1.824,3.524 2.875,7.192"
           style="fill:none;stroke:#867df9;stroke-width:5.31083;stroke-linecap:round;stroke-linejoin:miter;stroke-miterlimit:4;stroke-dasharray:none;stroke-opacity:1"
           id="path3823" /></g><g
         id="g3825"><path
           d="m 141.664,279.348 c 0.391,1.363 -0.445,1.543 0,2.879"
           style="fill:none;stroke:#867df9;stroke-width:5.31083;stroke-linecap:round;stroke-linejoin:miter;stroke-miterlimit:4;stroke-dasharray:none;stroke-opacity:1"
           id="path3827" /></g><g
         id="g3829"><path
           d="m 141.664,282.227 c 0.992,2.98 1.883,2.769 2.875,5.75"
           style="fill:none;stroke:#867df9;stroke-width:5.31083;stroke-linecap:round;stroke-linejoin:miter;stroke-miterlimit:4;stroke-dasharray:none;stroke-opacity:1"
           id="path3831" /></g><g
         id="g3833"><path
           d="m 144.539,287.977 c 0.445,1.335 -0.445,1.543 0,2.878"
           style="fill:none;stroke:#867df9;stroke-width:5.31083;stroke-linecap:round;stroke-linejoin:miter;stroke-miterlimit:4;stroke-dasharray:none;stroke-opacity:1"
           id="path3835" /></g><g
         id="g3837"><path
           d="m 144.539,290.855 c 0.996,2.981 2.055,2.668 2.879,5.75"
           style="fill:none;stroke:#867df9;stroke-width:5.31083;stroke-linecap:round;stroke-linejoin:miter;stroke-miterlimit:4;stroke-dasharray:none;stroke-opacity:1"
           id="path3839" /></g><g
         id="g3841"><path
           d="m 147.418,296.605 c 2.055,7.707 0.426,8.207 2.875,15.821"
           style="fill:none;stroke:#867df9;stroke-width:5.31083;stroke-linecap:round;stroke-linejoin:miter;stroke-miterlimit:4;stroke-dasharray:none;stroke-opacity:1"
           id="path3843" /></g><g
         id="g3845"><path
           d="m 150.293,312.426 c 4.023,12.523 5.562,12.066 10.066,24.449"
           style="fill:none;stroke:#867df9;stroke-width:5.31083;stroke-linecap:round;stroke-linejoin:miter;stroke-miterlimit:4;stroke-dasharray:none;stroke-opacity:1"
           id="path3847" /></g><g
         id="g3849"><path
           d="m 160.359,336.875 c 1.25,3.437 0.196,3.777 1.438,7.191"
           style="fill:none;stroke:#867df9;stroke-width:5.31083;stroke-linecap:round;stroke-linejoin:miter;stroke-miterlimit:4;stroke-dasharray:none;stroke-opacity:1"
           id="path3851" /></g><g
         id="g3853"><path
           d="m 161.797,344.066 c 1.637,4.496 2.683,4.137 4.316,8.629"
           style="fill:none;stroke:#867df9;stroke-width:5.31083;stroke-linecap:round;stroke-linejoin:miter;stroke-miterlimit:4;stroke-dasharray:none;stroke-opacity:1"
           id="path3855" /></g><g
         id="g3857"><path
           d="m 166.113,352.695 c 1.242,3.418 0.235,4.188 1.438,7.192"
           style="fill:none;stroke:#867df9;stroke-width:5.31083;stroke-linecap:round;stroke-linejoin:miter;stroke-miterlimit:4;stroke-dasharray:none;stroke-opacity:1"
           id="path3859" /></g><g
         id="g3861"><path
           d="m 167.551,359.887 c 0.234,0.59 1.199,-0.481 1.437,0"
           style="fill:none;stroke:#867df9;stroke-width:5.31083;stroke-linecap:round;stroke-linejoin:miter;stroke-miterlimit:4;stroke-dasharray:none;stroke-opacity:1"
           id="path3863" /></g><g
         id="g3865"><path
           d="m 168.988,359.887 c 0.481,0.961 -0.511,1.593 0,2.875"
           style="fill:none;stroke:#867df9;stroke-width:5.31083;stroke-linecap:round;stroke-linejoin:miter;stroke-miterlimit:4;stroke-dasharray:none;stroke-opacity:1"
           id="path3867" /></g><g
         id="g3869"><path
           d="m 168.988,362.762 c 0.926,2.316 1.547,3.871 2.879,4.316"
           style="fill:none;stroke:#867df9;stroke-width:5.31083;stroke-linecap:round;stroke-linejoin:miter;stroke-miterlimit:4;stroke-dasharray:none;stroke-opacity:1"
           id="path3871" /></g><g
         id="g3873"><path
           d="m 171.867,367.078 c 0.824,0.274 1.231,-2.945 1.438,-2.875"
           style="fill:none;stroke:#867df9;stroke-width:5.31083;stroke-linecap:round;stroke-linejoin:miter;stroke-miterlimit:4;stroke-dasharray:none;stroke-opacity:1"
           id="path3875" /></g><g
         id="g3877"><path
           d="m 171.867,367.078 c 1.555,-2.687 2.551,-2.668 4.313,-5.754"
           style="fill:none;stroke:#867df9;stroke-width:5.31083;stroke-linecap:round;stroke-linejoin:miter;stroke-miterlimit:4;stroke-dasharray:none;stroke-opacity:1"
           id="path3879" /></g><g
         id="g3881"><path
           d="m 176.18,361.324 c 1.113,-1.949 0.355,-2.328 1.437,-4.312"
           style="fill:none;stroke:#867df9;stroke-width:5.31083;stroke-linecap:round;stroke-linejoin:miter;stroke-miterlimit:4;stroke-dasharray:none;stroke-opacity:1"
           id="path3883" /></g><g
         id="g3885"><path
           d="m 177.617,357.012 c 3.235,-5.926 4.43,-5.34 7.192,-11.508"
           style="fill:none;stroke:#867df9;stroke-width:5.31083;stroke-linecap:round;stroke-linejoin:miter;stroke-miterlimit:4;stroke-dasharray:none;stroke-opacity:1"
           id="path3887" /></g><g
         id="g3889"><path
           d="m 184.809,345.504 c 6.586,-14.688 5.507,-15.207 11.507,-30.199"
           style="fill:none;stroke:#867df9;stroke-width:5.31083;stroke-linecap:round;stroke-linejoin:miter;stroke-miterlimit:4;stroke-dasharray:none;stroke-opacity:1"
           id="path3891" /></g><g
         id="g3893"><path
           d="m 196.316,315.305 c 1.192,-2.985 1.114,-3.11 2.875,-5.754"
           style="fill:none;stroke:#867df9;stroke-width:5.31083;stroke-linecap:round;stroke-linejoin:miter;stroke-miterlimit:4;stroke-dasharray:none;stroke-opacity:1"
           id="path3895" /></g><g
         id="g3897"><path
           d="m 199.191,309.551 c 1.114,-1.672 1.977,-1.074 2.875,-2.875"
           style="fill:none;stroke:#867df9;stroke-width:5.31083;stroke-linecap:round;stroke-linejoin:miter;stroke-miterlimit:4;stroke-dasharray:none;stroke-opacity:1"
           id="path3899" /></g><g
         id="g3901"><path
           d="m 202.066,306.676 c 4.852,-9.707 3.778,-10.434 8.629,-20.137"
           style="fill:none;stroke:#867df9;stroke-width:5.31083;stroke-linecap:round;stroke-linejoin:miter;stroke-miterlimit:4;stroke-dasharray:none;stroke-opacity:1"
           id="path3903" /></g><g
         id="g3905"><path
           d="m 210.695,286.539 c 0.903,-1.801 1.793,-1.172 2.879,-2.875"
           style="fill:none;stroke:#867df9;stroke-width:5.31083;stroke-linecap:round;stroke-linejoin:miter;stroke-miterlimit:4;stroke-dasharray:none;stroke-opacity:1"
           id="path3907" /></g><g
         id="g3909"><path
           d="m 213.574,283.664 c 3.949,-6.207 4.535,-6.117 7.192,-12.945"
           style="fill:none;stroke:#867df9;stroke-width:5.31083;stroke-linecap:round;stroke-linejoin:miter;stroke-miterlimit:4;stroke-dasharray:none;stroke-opacity:1"
           id="path3911" /></g><g
         id="g3913"><path
           d="m 220.766,270.719 c 2.375,-6.114 0.793,-6.699 2.875,-12.942"
           style="fill:none;stroke:#867df9;stroke-width:5.31083;stroke-linecap:round;stroke-linejoin:miter;stroke-miterlimit:4;stroke-dasharray:none;stroke-opacity:1"
           id="path3915" /></g><g
         id="g3917"><path
           d="m 223.641,257.777 c 1.515,-4.543 1.812,-4.875 4.312,-8.629"
           style="fill:none;stroke:#867df9;stroke-width:5.31083;stroke-linecap:round;stroke-linejoin:miter;stroke-miterlimit:4;stroke-dasharray:none;stroke-opacity:1"
           id="path3919" /></g><g
         id="g3921"><path
           d="m 227.953,249.148 c 0.375,-0.562 1.442,0 1.442,0"
           style="fill:none;stroke:#867df9;stroke-width:5.31083;stroke-linecap:round;stroke-linejoin:miter;stroke-miterlimit:4;stroke-dasharray:none;stroke-opacity:1"
           id="path3923" /></g><g
         id="g3925"><path
           d="m 229.395,249.148 c 0,0 -1.079,-0.363 -1.442,0"
           style="fill:none;stroke:#867df9;stroke-width:5.31083;stroke-linecap:round;stroke-linejoin:miter;stroke-miterlimit:4;stroke-dasharray:none;stroke-opacity:1"
           id="path3927" /></g><g
         id="g3929"><path
           d="m 227.953,249.148 c -0.359,0.36 0,0.719 0,1.438"
           style="fill:none;stroke:#867df9;stroke-width:5.31083;stroke-linecap:round;stroke-linejoin:miter;stroke-miterlimit:4;stroke-dasharray:none;stroke-opacity:1"
           id="path3931" /></g><g
         id="g3933"><path
           d="m 227.953,250.586 v 0"
           style="fill:none;stroke:#867df9;stroke-width:5.31083;stroke-linecap:round;stroke-linejoin:miter;stroke-miterlimit:4;stroke-dasharray:none;stroke-opacity:1"
           id="path3935" /></g></g></g></svg>
